<?xml version="1.0" encoding="UTF-8" standalone="no"?>
<svg
   xmlns:dc="http://purl.org/dc/elements/1.1/"
   xmlns:cc="http://creativecommons.org/ns#"
   xmlns:rdf="http://www.w3.org/1999/02/22-rdf-syntax-ns#"
   xmlns:svg="http://www.w3.org/2000/svg"
   xmlns="http://www.w3.org/2000/svg"
   xmlns:sodipodi="http://sodipodi.sourceforge.net/DTD/sodipodi-0.dtd"
   xmlns:inkscape="http://www.inkscape.org/namespaces/inkscape"
   inkscape:export-ydpi="96"
   inkscape:export-xdpi="96"
   inkscape:export-filename="/home/stevendoesstuffs/btree.png"
   width="2473.3721"
   height="955.77014"
   viewBox="0 0 2473.3721 955.77014"
   version="1.1"
   id="svg839"
   inkscape:version="1.0.2 (e86c870879, 2021-01-15, custom)"
   sodipodi:docname="tree-list.svg">
  <defs
     id="defs833" />
  <sodipodi:namedview
     inkscape:snap-global="true"
     fit-margin-bottom="0"
     fit-margin-right="0"
     fit-margin-left="0"
     lock-margins="true"
     fit-margin-top="0"
     inkscape:snap-object-midpoints="true"
     inkscape:snap-bbox-edge-midpoints="false"
     inkscape:object-paths="true"
     inkscape:snap-smooth-nodes="true"
     inkscape:snap-bbox-midpoints="true"
     inkscape:snap-bbox="true"
     id="base"
     pagecolor="#ffffff"
     bordercolor="#666666"
     borderopacity="1.0"
     inkscape:pageopacity="0.0"
     inkscape:pageshadow="2"
     inkscape:zoom="0.9899495"
     inkscape:cx="2249.9878"
     inkscape:cy="604.32498"
     inkscape:document-units="px"
     inkscape:current-layer="layer4"
     inkscape:document-rotation="0"
     showgrid="false"
     units="px"
     inkscape:pagecheckerboard="true"
     inkscape:showpageshadow="false"
     inkscape:window-width="1920"
     inkscape:window-height="1046"
     inkscape:window-x="0"
     inkscape:window-y="260"
     inkscape:window-maximized="1"
     inkscape:snap-nodes="true" />
  <metadata
     id="metadata836">
    <rdf:RDF>
      <cc:Work
         rdf:about="">
        <dc:format>image/svg+xml</dc:format>
        <dc:type
           rdf:resource="http://purl.org/dc/dcmitype/StillImage" />
        <dc:title />
      </cc:Work>
    </rdf:RDF>
  </metadata>
  <g
     style="display:none"
     transform="translate(-53.988588,-86.824997)"
     inkscape:label="tree-unmodified"
     inkscape:groupmode="layer"
     id="g1320"
     sodipodi:insensitive="true">
    <g
       id="g1228">
      <path
         style="fill:none;stroke:#9f7aea;stroke-width:8;stroke-linecap:round;stroke-linejoin:round;stroke-miterlimit:4;stroke-dasharray:none;stroke-opacity:1"
         d="M 135.36987,617.91944 260.18988,380.37201 385.01028,617.91968"
         id="path1218" />
      <path
         style="fill:none;stroke:#9f7aea;stroke-width:8;stroke-linecap:round;stroke-linejoin:round;stroke-miterlimit:4;stroke-dasharray:none;stroke-opacity:1"
         d="M 260.18988,380.37201 650.39489,142.825 1040.5999,380.37201"
         id="path1220" />
      <path
         style="fill:none;stroke:#9f7aea;stroke-width:8;stroke-linecap:round;stroke-linejoin:round;stroke-miterlimit:4;stroke-dasharray:none;stroke-opacity:1"
         d="m 785.03088,617.91901 255.56902,-237.547 255.568,237.547"
         id="path1222" />
      <path
         style="fill:none;stroke:#9f7aea;stroke-width:8;stroke-linecap:round;stroke-linejoin:round;stroke-miterlimit:4;stroke-dasharray:none;stroke-opacity:1"
         d="M 1171.3477,855.46643 1296.1679,617.91901"
         id="path1224" />
      <path
         style="fill:none;stroke:#9f7aea;stroke-width:8;stroke-linecap:round;stroke-linejoin:round;stroke-miterlimit:4;stroke-dasharray:none;stroke-opacity:1"
         d="M 660.21045,855.46643 785.03088,617.91901 909.85089,855.46668"
         id="path1226" />
    </g>
    <g
       transform="translate(5.3320312e-5)"
       id="g1250">
      <circle
         style="fill:#202020;fill-opacity:1;stroke:none;stroke-width:7.55246;stroke-linecap:round;stroke-linejoin:round;paint-order:markers stroke fill"
         id="circle1230"
         cx="135.36987"
         cy="617.91943"
         r="72" />
      <circle
         cy="617.91968"
         cx="385.01028"
         id="circle1232"
         style="fill:#202020;fill-opacity:1;stroke:none;stroke-width:7.55246;stroke-linecap:round;stroke-linejoin:round;paint-order:markers stroke fill"
         r="72" />
      <circle
         style="fill:#202020;fill-opacity:1;stroke:none;stroke-width:7.55246;stroke-linecap:round;stroke-linejoin:round;paint-order:markers stroke fill"
         id="circle1234"
         cx="260.18988"
         cy="380.37201"
         r="72" />
      <circle
         r="72"
         cy="855.46643"
         cx="660.21045"
         id="circle1236"
         style="fill:#202020;fill-opacity:1;stroke:none;stroke-width:7.55246;stroke-linecap:round;stroke-linejoin:round;paint-order:markers stroke fill" />
      <circle
         r="72"
         style="fill:#202020;fill-opacity:1;stroke:none;stroke-width:7.55246;stroke-linecap:round;stroke-linejoin:round;paint-order:markers stroke fill"
         id="circle1238"
         cx="909.85089"
         cy="855.46667" />
      <circle
         r="72"
         cy="617.91901"
         cx="785.03088"
         id="circle1240"
         style="fill:#202020;fill-opacity:1;stroke:none;stroke-width:7.55246;stroke-linecap:round;stroke-linejoin:round;paint-order:markers stroke fill" />
      <circle
         style="fill:#202020;fill-opacity:1;stroke:none;stroke-width:7.55246;stroke-linecap:round;stroke-linejoin:round;paint-order:markers stroke fill"
         id="circle1242"
         cx="1171.3477"
         cy="855.46643"
         r="72" />
      <circle
         style="fill:#202020;fill-opacity:1;stroke:none;stroke-width:7.55246;stroke-linecap:round;stroke-linejoin:round;paint-order:markers stroke fill"
         id="circle1244"
         cx="1296.1678"
         cy="617.91901"
         r="72" />
      <circle
         r="72"
         cy="380.37201"
         cx="1040.5999"
         id="circle1246"
         style="fill:#202020;fill-opacity:1;stroke:none;stroke-width:7.55246;stroke-linecap:round;stroke-linejoin:round;paint-order:markers stroke fill" />
      <circle
         r="72"
         cy="142.825"
         cx="650.3949"
         id="circle1248"
         style="fill:#202020;fill-opacity:1;stroke:none;stroke-width:7.55246;stroke-linecap:round;stroke-linejoin:round;paint-order:markers stroke fill" />
    </g>
    <g
       id="g1292"
       style="display:inline"
       transform="translate(31.369877,38.824998)">
      <text
         xml:space="preserve"
         style="font-size:74.6667px;line-height:1.25;font-family:'FuraCode Nerd Font';-inkscape-font-specification:'FuraCode Nerd Font, Normal';letter-spacing:0px;word-spacing:0px;fill:#ffffff;fill-opacity:1;stroke:none;stroke-opacity:1"
         x="81.152046"
         y="604.81714"
         id="text1254"><tspan
           sodipodi:role="line"
           id="tspan1252"
           x="81.152046"
           y="604.81714">1</tspan></text>
      <text
         xml:space="preserve"
         style="font-size:74.6667px;line-height:1.25;font-family:'FuraCode Nerd Font';-inkscape-font-specification:'FuraCode Nerd Font, Normal';letter-spacing:0px;word-spacing:0px;fill:#ffffff;fill-opacity:1;stroke:none;stroke-opacity:1"
         x="857.87305"
         y="842.77502"
         id="text1258"><tspan
           sodipodi:role="line"
           id="tspan1256"
           x="857.87305"
           y="842.77502">2</tspan></text>
      <text
         xml:space="preserve"
         style="font-size:74.6667px;line-height:1.25;font-family:'FuraCode Nerd Font';-inkscape-font-specification:'FuraCode Nerd Font, Normal';letter-spacing:0px;word-spacing:0px;fill:#ffffff;fill-opacity:1;stroke:none;stroke-opacity:1"
         x="1119.2952"
         y="842.36414"
         id="text1262"><tspan
           sodipodi:role="line"
           id="tspan1260"
           x="1119.2952"
           y="842.36414">3</tspan></text>
      <text
         xml:space="preserve"
         style="font-size:74.6667px;line-height:1.25;font-family:'FuraCode Nerd Font';-inkscape-font-specification:'FuraCode Nerd Font, Normal';letter-spacing:0px;word-spacing:0px;fill:#ffffff;fill-opacity:1;stroke:none;stroke-opacity:1"
         x="331.24045"
         y="605.22803"
         id="text1266"><tspan
           sodipodi:role="line"
           id="tspan1264"
           x="331.24045"
           y="605.22803">4</tspan></text>
      <text
         xml:space="preserve"
         style="font-size:74.6667px;line-height:1.25;font-family:'FuraCode Nerd Font';-inkscape-font-specification:'FuraCode Nerd Font, Normal';letter-spacing:0px;word-spacing:0px;fill:#ffffff;fill-opacity:1;stroke:none;stroke-opacity:1"
         x="987.31537"
         y="366.85904"
         id="text1270"><tspan
           sodipodi:role="line"
           id="tspan1268"
           x="987.31537"
           y="366.85904">5</tspan></text>
      <text
         xml:space="preserve"
         style="font-size:74.6667px;line-height:1.25;font-family:'FuraCode Nerd Font';-inkscape-font-specification:'FuraCode Nerd Font, Normal';letter-spacing:0px;word-spacing:0px;fill:#ffffff;fill-opacity:1;stroke:none;stroke-opacity:1"
         x="206.27072"
         y="367.26968"
         id="text1274"><tspan
           sodipodi:role="line"
           id="tspan1272"
           x="206.27072"
           y="367.26968">6</tspan></text>
      <text
         xml:space="preserve"
         style="font-size:74.6667px;line-height:1.25;font-family:'FuraCode Nerd Font';-inkscape-font-specification:'FuraCode Nerd Font, Normal';letter-spacing:0px;word-spacing:0px;fill:#ffffff;fill-opacity:1;stroke:none;stroke-opacity:1"
         x="596.55042"
         y="129.38667"
         id="text1278"><tspan
           sodipodi:role="line"
           id="tspan1276"
           x="596.55042"
           y="129.38667">7</tspan></text>
      <text
         xml:space="preserve"
         style="font-size:74.6667px;line-height:1.25;font-family:'FuraCode Nerd Font';-inkscape-font-specification:'FuraCode Nerd Font, Normal';letter-spacing:0px;word-spacing:0px;fill:#ffffff;fill-opacity:1;stroke:none;stroke-opacity:1"
         x="1242.3981"
         y="604.81671"
         id="text1282"><tspan
           sodipodi:role="line"
           id="tspan1280"
           x="1242.3981"
           y="604.81671">8</tspan></text>
      <text
         xml:space="preserve"
         style="font-size:74.6667px;line-height:1.25;font-family:'FuraCode Nerd Font';-inkscape-font-specification:'FuraCode Nerd Font, Normal';letter-spacing:0px;word-spacing:0px;fill:#ffffff;fill-opacity:1;stroke:none;stroke-opacity:1"
         x="732.00769"
         y="604.40601"
         id="text1286"><tspan
           sodipodi:role="line"
           id="tspan1284"
           x="732.00769"
           y="604.40601">9</tspan></text>
      <text
         id="text1290"
         y="842.36414"
         x="606.44061"
         style="font-size:74.6667px;line-height:1.25;font-family:'FuraCode Nerd Font';-inkscape-font-specification:'FuraCode Nerd Font, Normal';letter-spacing:0px;word-spacing:0px;fill:#ffffff;fill-opacity:1;stroke:none;stroke-opacity:1"
         xml:space="preserve"><tspan
           y="842.36414"
           x="606.44061"
           id="tspan1288"
           sodipodi:role="line">0</tspan></text>
    </g>
  </g>
  <g
     sodipodi:insensitive="true"
     style="display:none"
     transform="translate(-53.988588,-86.824997)"
     inkscape:label="traversal"
     inkscape:groupmode="layer"
     id="layer1">
    <g
       id="g1212"
       style="stroke:#48bb78;stroke-width:8;stroke-linecap:round;stroke-linejoin:round;stroke-miterlimit:4;stroke-dasharray:16, 16;stroke-dashoffset:0;stroke-opacity:1">
      <path
         sodipodi:nodetypes="cc"
         id="path1182"
         d="M 135.36992,689.91944 C 126.63702,804.6211 70.817335,904.24678 69.374266,1010.592"
         style="fill:none;stroke:#48bb78;stroke-width:8;stroke-linecap:round;stroke-linejoin:round;stroke-miterlimit:4;stroke-dasharray:16, 16;stroke-dashoffset:0;stroke-opacity:1" />
      <path
         sodipodi:nodetypes="cc"
         id="path1184"
         d="m 260.18992,452.37199 c 27.55747,200.81732 -49.3943,395.0948 -49.3943,558.22001"
         style="fill:none;stroke:#48bb78;stroke-width:8;stroke-linecap:round;stroke-linejoin:round;stroke-miterlimit:4;stroke-dasharray:16, 16;stroke-dashoffset:0;stroke-opacity:1" />
      <path
         sodipodi:nodetypes="cc"
         id="path1186"
         d="M 385.01034,689.91966 C 392.15211,796.9656 350.28172,886.45581 358.27789,1010.592"
         style="fill:none;stroke:#48bb78;stroke-width:8;stroke-linecap:round;stroke-linejoin:round;stroke-miterlimit:4;stroke-dasharray:16, 16;stroke-dashoffset:0;stroke-opacity:1" />
      <path
         sodipodi:nodetypes="csc"
         id="path1188"
         d="m 650.39495,214.82499 c 0,91.97438 -10.63555,245.92662 -72.2522,378.47593 -67.16791,144.49113 -122.85177,255.51551 -76.4232,417.29108"
         style="fill:none;stroke:#48bb78;stroke-width:8;stroke-linecap:round;stroke-linejoin:round;stroke-miterlimit:4;stroke-dasharray:16, 16;stroke-dashoffset:0;stroke-opacity:1" />
      <path
         sodipodi:nodetypes="cc"
         id="path1190"
         d="m 660.2105,927.46643 c -6.46821,24.49624 -17.26398,31.13246 -17.06959,83.12557"
         style="fill:none;stroke:#48bb78;stroke-width:8;stroke-linecap:round;stroke-linejoin:round;stroke-miterlimit:4;stroke-dasharray:16, 16;stroke-dashoffset:0;stroke-opacity:1" />
      <path
         sodipodi:nodetypes="cc"
         id="path1192"
         d="m 785.03094,689.91898 c 22.42747,111.451 -18.32562,214.37704 -0.46867,320.67302"
         style="fill:none;stroke:#48bb78;stroke-width:8;stroke-linecap:round;stroke-linejoin:round;stroke-miterlimit:4;stroke-dasharray:16, 16;stroke-dashoffset:0;stroke-opacity:1" />
      <path
         sodipodi:nodetypes="cc"
         id="path1194"
         d="m 909.85094,927.46668 c 5.13307,27.58298 19.16314,53.07648 19.16314,83.12532"
         style="fill:none;stroke:#48bb78;stroke-width:8;stroke-linecap:round;stroke-linejoin:round;stroke-miterlimit:4;stroke-dasharray:16, 16;stroke-dashoffset:0;stroke-opacity:1" />
      <path
         sodipodi:nodetypes="csc"
         id="path1196"
         d="m 1040.5999,452.37201 c 0,0 -23.611,222.59427 -1.7933,402.23812 8.149,67.09779 34.6593,109.65475 34.6593,155.98187"
         style="fill:none;stroke:#48bb78;stroke-width:8;stroke-linecap:round;stroke-linejoin:round;stroke-miterlimit:4;stroke-dasharray:16, 16;stroke-dashoffset:0;stroke-opacity:1" />
      <path
         sodipodi:nodetypes="cc"
         id="path1198"
         d="m 1171.3477,927.46641 c 3.515,45.74968 40.3699,58.88097 44.5497,83.12559"
         style="fill:none;stroke:#48bb78;stroke-width:8;stroke-linecap:round;stroke-linejoin:round;stroke-miterlimit:4;stroke-dasharray:16, 16;stroke-dashoffset:0;stroke-opacity:1" />
      <path
         sodipodi:nodetypes="cc"
         id="path1200"
         d="m 1296.1679,689.91901 c 46.4395,0 65.7539,257.79573 67.2118,320.67299"
         style="fill:none;stroke:#48bb78;stroke-width:8;stroke-linecap:round;stroke-linejoin:round;stroke-miterlimit:4;stroke-dasharray:16, 16;stroke-dashoffset:0;stroke-opacity:1" />
    </g>
    <g
       id="g1329">
      <path
         id="path1373"
         d="m 888.25933,243.18394 10.77159,-16.2522 -21.75008,-2.47561 z"
         style="display:inline;fill:#4299e1;fill-opacity:1;stroke:#4299e1;stroke-width:4.50279;stroke-linecap:round;stroke-linejoin:round;stroke-miterlimit:4;stroke-dasharray:none;stroke-opacity:1" />
      <path
         style="display:inline;fill:#4299e1;fill-opacity:1;stroke:#4299e1;stroke-width:4.50279;stroke-linecap:round;stroke-linejoin:round;stroke-miterlimit:4;stroke-dasharray:none;stroke-opacity:1"
         d="m 428.90263,220.17521 -9.30968,-17.13157 -12.37959,18.05383 z"
         id="path1373-1" />
      <path
         style="display:inline;fill:#4299e1;fill-opacity:1;stroke:#4299e1;stroke-width:4.50279;stroke-linecap:round;stroke-linejoin:round;stroke-miterlimit:4;stroke-dasharray:none;stroke-opacity:1"
         d="m 138.56603,468.18159 -15.6648,-11.60927 -3.61359,21.59019 z"
         id="path1373-2" />
      <path
         style="display:inline;fill:#4299e1;fill-opacity:1;stroke:#4299e1;stroke-width:4.50279;stroke-linecap:round;stroke-linejoin:round;stroke-miterlimit:4;stroke-dasharray:none;stroke-opacity:1"
         d="m 249.48694,486.12668 -1.12988,19.46495 20.04147,-8.80537 z"
         id="path1373-9" />
      <path
         style="display:inline;fill:#4299e1;fill-opacity:1;stroke:#4299e1;stroke-width:4.50279;stroke-linecap:round;stroke-linejoin:round;stroke-miterlimit:4;stroke-dasharray:none;stroke-opacity:1"
         d="m 347.73006,419.90404 19.49765,0.0561 -9.89583,-19.52607 z"
         id="path1373-3" />
      <path
         style="display:inline;fill:#4299e1;fill-opacity:1;stroke:#4299e1;stroke-width:4.50279;stroke-linecap:round;stroke-linejoin:round;stroke-miterlimit:4;stroke-dasharray:none;stroke-opacity:1"
         d="m 949.409,383.84072 -19.49181,0.47993 10.42887,19.24666 z"
         id="path1373-4" />
      <path
         style="display:inline;fill:#4299e1;fill-opacity:1;stroke:#4299e1;stroke-width:4.50279;stroke-linecap:round;stroke-linejoin:round;stroke-miterlimit:4;stroke-dasharray:none;stroke-opacity:1"
         d="m 649.52138,719.29553 -15.54292,-11.77196 -3.83847,21.55136 z"
         id="path1373-8" />
      <path
         style="display:inline;fill:#4299e1;fill-opacity:1;stroke:#4299e1;stroke-width:4.50279;stroke-linecap:round;stroke-linejoin:round;stroke-miterlimit:4;stroke-dasharray:none;stroke-opacity:1"
         d="m 777.2154,723.05091 v 19.49772 l 19.49752,-9.95196 z"
         id="path1373-45" />
      <path
         style="display:inline;fill:#4299e1;fill-opacity:1;stroke:#4299e1;stroke-width:4.50279;stroke-linecap:round;stroke-linejoin:round;stroke-miterlimit:4;stroke-dasharray:none;stroke-opacity:1"
         d="m 869.26738,642.15976 19.4972,-0.1427 -10.0944,-19.42417 z"
         id="path1373-0" />
      <path
         id="path1373-0-3"
         d="m 1190.6848,625.75983 19.4972,0.1427 -10.0944,19.42417 z"
         style="display:inline;fill:#4299e1;fill-opacity:1;stroke:#4299e1;stroke-width:4.50279;stroke-linecap:round;stroke-linejoin:round;stroke-miterlimit:4;stroke-dasharray:none;stroke-opacity:1" />
      <path
         style="display:inline;fill:#4299e1;fill-opacity:1;stroke:#4299e1;stroke-width:4.50279;stroke-linecap:round;stroke-linejoin:round;stroke-miterlimit:4;stroke-dasharray:none;stroke-opacity:1"
         d="m 1277.6029,774.75892 18.337,6.62691 -2.7327,-21.71928 z"
         id="path1373-10" />
      <path
         style="display:inline;fill:#4299e1;fill-opacity:1;stroke:#4299e1;stroke-width:4.50279;stroke-linecap:round;stroke-linejoin:round;stroke-miterlimit:4;stroke-dasharray:none;stroke-opacity:1"
         d="m 1249.6775,464.63445 10.4531,-16.45887 -21.7941,-2.05209 z"
         id="path1373-63" />
      <path
         style="display:inline;fill:#4299e1;fill-opacity:1;stroke:#4299e1;stroke-width:4.50279;stroke-linecap:round;stroke-linejoin:round;stroke-miterlimit:4;stroke-dasharray:none;stroke-opacity:1"
         d="m 1018.1121,484.47787 0.8665,19.47844 19.0361,-10.80859 z"
         id="path1373-6" />
      <path
         style="display:inline;fill:#4299e1;fill-opacity:1;stroke:#4299e1;stroke-width:4.50279;stroke-linecap:round;stroke-linejoin:round;stroke-miterlimit:4;stroke-dasharray:none;stroke-opacity:1"
         d="m 621.83989,245.54905 -0.0649,19.49761 19.53055,-9.88701 z"
         id="path1373-19" />
    </g>
    <path
       style="display:inline;fill:none;stroke:#4299e1;stroke-width:8;stroke-linecap:round;stroke-linejoin:round;stroke-miterlimit:4;stroke-dasharray:none;stroke-opacity:1"
       d="m 551.0934,134.2844 c 0,0 -3.11121,1.99106 -8.70516,5.52229 -43.80917,27.65493 -228.4631,145.12978 -286.36928,145.12978 -78.11831,0 -95.40553,67.33769 -95.40553,102.39114 0,92.61262 -142.25658,155.9426 -128.233351,247.48737 7.499149,48.95505 54.542911,107.58512 104.045701,106.06601 50.34118,-1.54484 98.99495,-63.78234 98.99495,-114.14723 0,-42.86751 -68.74694,-130.30968 23.23351,-130.30968 93.90535,0 25.25381,90.37038 25.25381,130.30968 0,51.35025 48.65884,116.53829 100.00511,117.17769 52.9302,0.65912 99.87557,-65.61676 106.06601,-118.18785 10.57201,-89.78066 -157.92134,-152.64562 -129.29952,-238.39598 33.53614,-100.4736 182.98315,-131.64602 288.90362,-132.33 105.67454,-0.68239 272.33819,24.08442 289.91378,128.28938 12.82539,76.04121 -96.33239,133.65535 -154.31452,133.65535 -72.07941,0 -102.26422,46.29144 -102.26422,105.7508 0,91.40687 -137.93867,154.08102 -124.24876,244.45691 7.38224,48.73494 53.74603,106.43352 103.03555,106.06602 48.59108,-0.36229 100.00511,-58.98594 100.00511,-106.06602 0,-49.46213 -72.74224,-134.35029 25.25381,-134.35029 100.72413,0 27.27412,92.20731 27.27412,133.34014 0,48.38081 49.60414,107.20096 97.98479,107.07618 48.15398,-0.1242 91.19247,-59.27045 96.97467,-107.07618 10.8906,-90.04087 -146.79307,-150.4121 -129.29955,-239.40615 13.61272,-69.25143 93.0697,-134.83315 163.64475,-134.35029 67.8585,0.46428 142.5847,64.71248 155.5635,131.31983 17.6875,90.7725 -143.3669,154.06357 -129.2995,245.46708 7.4971,48.71276 57.4064,106.11318 106.663,104.40285 47.9282,-1.66422 91.9211,-64.84841 97.0972,-108.08632 6.6986,-55.95491 5.7869,-107.03675 49.6686,-142.56149 28.3392,-22.94216 72.5951,-51.79445 70.3251,-99.22212 -5.6142,-117.30101 -210.7366,-196.01846 -244.923,-241.42646 -22.892,-30.4062 -17.3444,-95.92704 -110.4354,-95.92704 -98.18354,0 -289.119,-151.05525 -289.119,-151.05525"
       id="path1371"
       sodipodi:nodetypes="cssssssssssssssssssssssssssssssssc" />
    <g
       id="g1305">
      <path
         style="fill:none;stroke:#9f7aea;stroke-width:8;stroke-linecap:round;stroke-linejoin:round;stroke-miterlimit:4;stroke-dasharray:none;stroke-opacity:1"
         d="M 135.36987,617.91944 260.18988,380.37201 385.01028,617.91968"
         id="path1290" />
      <path
         style="fill:none;stroke:#9f7aea;stroke-width:8;stroke-linecap:round;stroke-linejoin:round;stroke-miterlimit:4;stroke-dasharray:none;stroke-opacity:1"
         d="M 260.18988,380.37201 650.39489,142.825 1040.5999,380.37201"
         id="path1292" />
      <path
         style="fill:none;stroke:#9f7aea;stroke-width:8;stroke-linecap:round;stroke-linejoin:round;stroke-miterlimit:4;stroke-dasharray:none;stroke-opacity:1"
         d="m 785.03088,617.91901 255.56902,-237.547 255.568,237.547"
         id="path1294" />
      <path
         style="fill:none;stroke:#9f7aea;stroke-width:8;stroke-linecap:round;stroke-linejoin:round;stroke-miterlimit:4;stroke-dasharray:none;stroke-opacity:1"
         d="M 1171.3477,855.46643 1296.1679,617.91901"
         id="path1296" />
      <path
         style="fill:none;stroke:#9f7aea;stroke-width:8;stroke-linecap:round;stroke-linejoin:round;stroke-miterlimit:4;stroke-dasharray:none;stroke-opacity:1"
         d="M 660.21045,855.46643 785.03088,617.91901 909.85089,855.46668"
         id="path1298" />
    </g>
    <g
       transform="translate(5.3320312e-5)"
       id="g1317">
      <circle
         style="fill:#202020;fill-opacity:1;stroke:none;stroke-width:7.55246;stroke-linecap:round;stroke-linejoin:round;paint-order:markers stroke fill"
         id="path830"
         cx="135.36987"
         cy="617.91943"
         r="72" />
      <circle
         cy="617.91968"
         cx="385.01028"
         id="path830-3"
         style="fill:#202020;fill-opacity:1;stroke:none;stroke-width:7.55246;stroke-linecap:round;stroke-linejoin:round;paint-order:markers stroke fill"
         r="72" />
      <circle
         style="fill:#202020;fill-opacity:1;stroke:none;stroke-width:7.55246;stroke-linecap:round;stroke-linejoin:round;paint-order:markers stroke fill"
         id="path830-3-6"
         cx="260.18988"
         cy="380.37201"
         r="72" />
      <circle
         r="72"
         cy="855.46643"
         cx="660.21045"
         id="path830-9"
         style="fill:#202020;fill-opacity:1;stroke:none;stroke-width:7.55246;stroke-linecap:round;stroke-linejoin:round;paint-order:markers stroke fill" />
      <circle
         r="72"
         style="fill:#202020;fill-opacity:1;stroke:none;stroke-width:7.55246;stroke-linecap:round;stroke-linejoin:round;paint-order:markers stroke fill"
         id="path830-3-1"
         cx="909.85089"
         cy="855.46667" />
      <circle
         r="72"
         cy="617.91901"
         cx="785.03088"
         id="path830-3-6-2"
         style="fill:#202020;fill-opacity:1;stroke:none;stroke-width:7.55246;stroke-linecap:round;stroke-linejoin:round;paint-order:markers stroke fill" />
      <circle
         style="fill:#202020;fill-opacity:1;stroke:none;stroke-width:7.55246;stroke-linecap:round;stroke-linejoin:round;paint-order:markers stroke fill"
         id="path830-9-7"
         cx="1171.3477"
         cy="855.46643"
         r="72" />
      <circle
         style="fill:#202020;fill-opacity:1;stroke:none;stroke-width:7.55246;stroke-linecap:round;stroke-linejoin:round;paint-order:markers stroke fill"
         id="path830-3-6-2-0"
         cx="1296.1678"
         cy="617.91901"
         r="72" />
      <circle
         r="72"
         cy="380.37201"
         cx="1040.5999"
         id="path830-3-6-6"
         style="fill:#202020;fill-opacity:1;stroke:none;stroke-width:7.55246;stroke-linecap:round;stroke-linejoin:round;paint-order:markers stroke fill" />
      <circle
         r="72"
         cy="142.825"
         cx="650.3949"
         id="path830-3-6-62"
         style="fill:#202020;fill-opacity:1;stroke:none;stroke-width:7.55246;stroke-linecap:round;stroke-linejoin:round;paint-order:markers stroke fill" />
    </g>
    <g
       id="g1357"
       style="display:inline"
       transform="translate(31.369877,38.824998)">
      <text
         xml:space="preserve"
         style="font-size:74.6667px;line-height:1.25;font-family:'FuraCode Nerd Font';-inkscape-font-specification:'FuraCode Nerd Font, Normal';letter-spacing:0px;word-spacing:0px;fill:#ffffff;fill-opacity:1;stroke:none;stroke-opacity:1"
         x="81.152046"
         y="604.81714"
         id="text1076"><tspan
           sodipodi:role="line"
           id="tspan1074"
           x="81.152046"
           y="604.81714">1</tspan></text>
      <text
         xml:space="preserve"
         style="font-size:74.6667px;line-height:1.25;font-family:'FuraCode Nerd Font';-inkscape-font-specification:'FuraCode Nerd Font, Normal';letter-spacing:0px;word-spacing:0px;fill:#ffffff;fill-opacity:1;stroke:none;stroke-opacity:1"
         x="857.87305"
         y="842.77502"
         id="text1080"><tspan
           sodipodi:role="line"
           id="tspan1078"
           x="857.87305"
           y="842.77502">2</tspan></text>
      <text
         xml:space="preserve"
         style="font-size:74.6667px;line-height:1.25;font-family:'FuraCode Nerd Font';-inkscape-font-specification:'FuraCode Nerd Font, Normal';letter-spacing:0px;word-spacing:0px;fill:#ffffff;fill-opacity:1;stroke:none;stroke-opacity:1"
         x="1119.2952"
         y="842.36414"
         id="text1084"><tspan
           sodipodi:role="line"
           id="tspan1082"
           x="1119.2952"
           y="842.36414">3</tspan></text>
      <text
         xml:space="preserve"
         style="font-size:74.6667px;line-height:1.25;font-family:'FuraCode Nerd Font';-inkscape-font-specification:'FuraCode Nerd Font, Normal';letter-spacing:0px;word-spacing:0px;fill:#ffffff;fill-opacity:1;stroke:none;stroke-opacity:1"
         x="331.24045"
         y="605.22803"
         id="text1088"><tspan
           sodipodi:role="line"
           id="tspan1086"
           x="331.24045"
           y="605.22803">4</tspan></text>
      <text
         xml:space="preserve"
         style="font-size:74.6667px;line-height:1.25;font-family:'FuraCode Nerd Font';-inkscape-font-specification:'FuraCode Nerd Font, Normal';letter-spacing:0px;word-spacing:0px;fill:#ffffff;fill-opacity:1;stroke:none;stroke-opacity:1"
         x="987.31537"
         y="366.85904"
         id="text1092"><tspan
           sodipodi:role="line"
           id="tspan1090"
           x="987.31537"
           y="366.85904">5</tspan></text>
      <text
         xml:space="preserve"
         style="font-size:74.6667px;line-height:1.25;font-family:'FuraCode Nerd Font';-inkscape-font-specification:'FuraCode Nerd Font, Normal';letter-spacing:0px;word-spacing:0px;fill:#ffffff;fill-opacity:1;stroke:none;stroke-opacity:1"
         x="206.27072"
         y="367.26968"
         id="text1096"><tspan
           sodipodi:role="line"
           id="tspan1094"
           x="206.27072"
           y="367.26968">6</tspan></text>
      <text
         xml:space="preserve"
         style="font-size:74.6667px;line-height:1.25;font-family:'FuraCode Nerd Font';-inkscape-font-specification:'FuraCode Nerd Font, Normal';letter-spacing:0px;word-spacing:0px;fill:#ffffff;fill-opacity:1;stroke:none;stroke-opacity:1"
         x="596.55042"
         y="129.38667"
         id="text1100"><tspan
           sodipodi:role="line"
           id="tspan1098"
           x="596.55042"
           y="129.38667">7</tspan></text>
      <text
         xml:space="preserve"
         style="font-size:74.6667px;line-height:1.25;font-family:'FuraCode Nerd Font';-inkscape-font-specification:'FuraCode Nerd Font, Normal';letter-spacing:0px;word-spacing:0px;fill:#ffffff;fill-opacity:1;stroke:none;stroke-opacity:1"
         x="1242.3981"
         y="604.81671"
         id="text1104"><tspan
           sodipodi:role="line"
           id="tspan1102"
           x="1242.3981"
           y="604.81671">8</tspan></text>
      <text
         xml:space="preserve"
         style="font-size:74.6667px;line-height:1.25;font-family:'FuraCode Nerd Font';-inkscape-font-specification:'FuraCode Nerd Font, Normal';letter-spacing:0px;word-spacing:0px;fill:#ffffff;fill-opacity:1;stroke:none;stroke-opacity:1"
         x="732.00769"
         y="604.40601"
         id="text1108"><tspan
           sodipodi:role="line"
           id="tspan1106"
           x="732.00769"
           y="604.40601">9</tspan></text>
      <text
         id="text1076-1"
         y="842.36414"
         x="606.44061"
         style="font-size:74.6667px;line-height:1.25;font-family:'FuraCode Nerd Font';-inkscape-font-specification:'FuraCode Nerd Font, Normal';letter-spacing:0px;word-spacing:0px;fill:#ffffff;fill-opacity:1;stroke:none;stroke-opacity:1"
         xml:space="preserve"><tspan
           y="842.36414"
           x="606.44061"
           id="tspan1074-8"
           sodipodi:role="line">0</tspan></text>
    </g>
    <g
       id="g1369"
       style="display:inline"
       transform="translate(31.369873,38.824987)">
      <circle
         r="24.000097"
         cy="651.09442"
         cx="104.00005"
         id="path1195"
         style="fill:#ed8936;fill-opacity:1;stroke:none;stroke-width:11.5195;stroke-linecap:round;stroke-linejoin:round;stroke-miterlimit:4;stroke-dasharray:none;stroke-opacity:1;paint-order:markers stroke fill" />
      <circle
         style="fill:#ed8936;fill-opacity:1;stroke:none;stroke-width:11.5195;stroke-linecap:round;stroke-linejoin:round;stroke-miterlimit:4;stroke-dasharray:none;stroke-opacity:1;paint-order:markers stroke fill"
         id="path1195-7"
         cx="228.82005"
         cy="413.547"
         r="24.000097" />
      <circle
         style="fill:#ed8936;fill-opacity:1;stroke:none;stroke-width:11.5195;stroke-linecap:round;stroke-linejoin:round;stroke-miterlimit:4;stroke-dasharray:none;stroke-opacity:1;paint-order:markers stroke fill"
         id="path1195-9"
         cx="353.64047"
         cy="651.09467"
         r="24.000097" />
      <circle
         style="fill:#ed8936;fill-opacity:1;stroke:none;stroke-width:11.5195;stroke-linecap:round;stroke-linejoin:round;stroke-miterlimit:4;stroke-dasharray:none;stroke-opacity:1;paint-order:markers stroke fill"
         id="path1195-2"
         cx="619.02509"
         cy="176"
         r="24.000097" />
      <circle
         style="fill:#ed8936;fill-opacity:1;stroke:none;stroke-width:11.5195;stroke-linecap:round;stroke-linejoin:round;stroke-miterlimit:4;stroke-dasharray:none;stroke-opacity:1;paint-order:markers stroke fill"
         id="path1195-0"
         cx="628.84064"
         cy="888.64142"
         r="24.000097" />
      <circle
         style="fill:#ed8936;fill-opacity:1;stroke:none;stroke-width:11.5195;stroke-linecap:round;stroke-linejoin:round;stroke-miterlimit:4;stroke-dasharray:none;stroke-opacity:1;paint-order:markers stroke fill"
         id="path1195-23"
         cx="753.66107"
         cy="651.09399"
         r="24.000097" />
      <circle
         style="fill:#ed8936;fill-opacity:1;stroke:none;stroke-width:11.5195;stroke-linecap:round;stroke-linejoin:round;stroke-miterlimit:4;stroke-dasharray:none;stroke-opacity:1;paint-order:markers stroke fill"
         id="path1195-75"
         cx="878.48108"
         cy="888.64166"
         r="24.000097" />
      <circle
         inkscape:transform-center-x="8.0812206"
         style="fill:#ed8936;fill-opacity:1;stroke:none;stroke-width:11.5195;stroke-linecap:round;stroke-linejoin:round;stroke-miterlimit:4;stroke-dasharray:none;stroke-opacity:1;paint-order:markers stroke fill"
         id="path1195-92"
         cx="1139.9778"
         cy="888.64142"
         r="24.000097" />
      <circle
         inkscape:transform-center-y="26.263967"
         inkscape:transform-center-x="-5.0507629"
         style="fill:#ed8936;fill-opacity:1;stroke:none;stroke-width:11.5195;stroke-linecap:round;stroke-linejoin:round;stroke-miterlimit:4;stroke-dasharray:none;stroke-opacity:1;paint-order:markers stroke fill"
         id="path1195-28"
         cx="1264.798"
         cy="651.09399"
         r="24.000097" />
      <circle
         inkscape:transform-center-y="62.62946"
         inkscape:transform-center-x="-29.294425"
         style="fill:#ed8936;fill-opacity:1;stroke:none;stroke-width:11.5195;stroke-linecap:round;stroke-linejoin:round;stroke-miterlimit:4;stroke-dasharray:none;stroke-opacity:1;paint-order:markers stroke fill"
         id="path1195-97"
         cx="1009.23"
         cy="413.54703"
         r="24.000097" />
    </g>
    <text
       xml:space="preserve"
       style="font-size:80px;line-height:1.25;font-family:'FuraCode Nerd Font';-inkscape-font-specification:'FuraCode Nerd Font, Normal';letter-spacing:0px;word-spacing:0px"
       x="-5.2696161"
       y="1094.025"
       id="text1180"><tspan
         sodipodi:role="line"
         id="tspan1178"
         x="-5.2696161"
         y="1094.025"
         style="font-size:80px">[1, 6, 4, 7, 0, 9, 2, 5, 3, 8]</tspan></text>
  </g>
  <g
     inkscape:groupmode="layer"
     id="layer3"
     inkscape:label="get"
     style="display:none"
     transform="translate(-59.260188,-47.999998)">
    <g
       id="g1305-3"
       style="display:inline"
       transform="translate(5.271621,-38.824995)">
      <path
         id="path1290-6"
         d="M 135.36987,617.91944 260.18988,380.37201 385.01028,617.91968"
         style="fill:none;stroke:#9f7aea;stroke-width:8;stroke-linecap:round;stroke-linejoin:round;stroke-miterlimit:4;stroke-dasharray:none;stroke-opacity:1" />
      <path
         id="path1292-7"
         d="M 260.18988,380.37201 650.39489,142.825 1040.5999,380.37201"
         style="fill:none;stroke:#9f7aea;stroke-width:8;stroke-linecap:round;stroke-linejoin:round;stroke-miterlimit:4;stroke-dasharray:none;stroke-opacity:1" />
      <path
         id="path1294-5"
         d="m 785.03088,617.91901 255.56902,-237.547 255.568,237.547"
         style="fill:none;stroke:#9f7aea;stroke-width:8;stroke-linecap:round;stroke-linejoin:round;stroke-miterlimit:4;stroke-dasharray:none;stroke-opacity:1" />
      <path
         id="path1296-3"
         d="M 1171.3477,855.46643 1296.1679,617.91901"
         style="fill:none;stroke:#9f7aea;stroke-width:8;stroke-linecap:round;stroke-linejoin:round;stroke-miterlimit:4;stroke-dasharray:none;stroke-opacity:1" />
      <path
         id="path1298-5"
         d="M 660.21045,855.46643 785.03088,617.91901 909.85089,855.46668"
         style="fill:none;stroke:#9f7aea;stroke-width:8;stroke-linecap:round;stroke-linejoin:round;stroke-miterlimit:4;stroke-dasharray:none;stroke-opacity:1" />
    </g>
    <path
       style="fill:none;stroke:#4299e1;stroke-width:8;stroke-linecap:round;stroke-linejoin:round;stroke-miterlimit:4;stroke-dasharray:none;stroke-opacity:1"
       d="m 655.66657,104 390.20493,237.54701 -255.56894,237.547"
       id="path1203" />
    <g
       id="g1317-6"
       transform="translate(5.271674,-38.824995)"
       style="display:inline">
      <circle
         r="72"
         cy="617.91943"
         cx="135.36987"
         id="path830-2"
         style="fill:#202020;fill-opacity:1;stroke:none;stroke-width:7.55246;stroke-linecap:round;stroke-linejoin:round;paint-order:markers stroke fill" />
      <circle
         r="72"
         style="fill:#202020;fill-opacity:1;stroke:none;stroke-width:7.55246;stroke-linecap:round;stroke-linejoin:round;paint-order:markers stroke fill"
         id="path830-3-9"
         cx="385.01028"
         cy="617.91968" />
      <circle
         r="72"
         cy="380.37201"
         cx="260.18988"
         id="path830-3-6-1"
         style="fill:#202020;fill-opacity:1;stroke:none;stroke-width:7.55246;stroke-linecap:round;stroke-linejoin:round;paint-order:markers stroke fill" />
      <circle
         style="fill:#202020;fill-opacity:1;stroke:none;stroke-width:7.55246;stroke-linecap:round;stroke-linejoin:round;paint-order:markers stroke fill"
         id="path830-9-2"
         cx="660.21045"
         cy="855.46643"
         r="72" />
      <circle
         cy="855.46667"
         cx="909.85089"
         id="path830-3-1-7"
         style="fill:#202020;fill-opacity:1;stroke:none;stroke-width:7.55246;stroke-linecap:round;stroke-linejoin:round;paint-order:markers stroke fill"
         r="72" />
      <circle
         style="fill:#202020;fill-opacity:1;stroke:#48bb78;stroke-width:8;stroke-linecap:round;stroke-linejoin:round;stroke-miterlimit:4;stroke-dasharray:none;stroke-opacity:1;paint-order:normal"
         id="path830-3-6-2-09"
         cx="785.03088"
         cy="617.91901"
         r="72" />
      <circle
         r="72"
         cy="855.46643"
         cx="1171.3477"
         id="path830-9-7-3"
         style="fill:#202020;fill-opacity:1;stroke:none;stroke-width:7.55246;stroke-linecap:round;stroke-linejoin:round;paint-order:markers stroke fill" />
      <circle
         r="72"
         cy="617.91901"
         cx="1296.1678"
         id="path830-3-6-2-0-6"
         style="fill:#202020;fill-opacity:1;stroke:none;stroke-width:7.55246;stroke-linecap:round;stroke-linejoin:round;paint-order:markers stroke fill" />
      <circle
         style="fill:#202020;fill-opacity:1;stroke:#4299e1;stroke-width:8;stroke-linecap:round;stroke-linejoin:round;stroke-miterlimit:4;stroke-dasharray:none;stroke-opacity:1;paint-order:normal"
         id="path830-3-6-6-0"
         cx="1040.5999"
         cy="380.37201"
         r="72" />
      <circle
         style="fill:#202020;fill-opacity:1;stroke:#4299e1;stroke-width:8;stroke-linecap:round;stroke-linejoin:round;stroke-miterlimit:4;stroke-dasharray:none;stroke-opacity:1;paint-order:normal"
         id="path830-3-6-62-6"
         cx="650.3949"
         cy="142.825"
         r="72" />
    </g>
    <g
       transform="translate(36.641497)"
       style="display:inline"
       id="g1357-2">
      <text
         id="text1076-6"
         y="606.65442"
         x="79.52005"
         style="font-size:80px;line-height:1.25;font-family:'FuraCode Nerd Font';-inkscape-font-specification:'FuraCode Nerd Font, Normal';letter-spacing:0px;word-spacing:0px;fill:#ffffff;fill-opacity:1;stroke:none;stroke-opacity:1"
         xml:space="preserve"><tspan
           y="606.65442"
           x="79.52005"
           id="tspan1074-1"
           sodipodi:role="line"
           style="font-size:80px">1</tspan></text>
      <text
         id="text1080-8"
         y="844.64166"
         x="856.40106"
         style="font-size:80px;line-height:1.25;font-family:'FuraCode Nerd Font';-inkscape-font-specification:'FuraCode Nerd Font, Normal';letter-spacing:0px;word-spacing:0px;fill:#ffffff;fill-opacity:1;stroke:none;stroke-opacity:1"
         xml:space="preserve"><tspan
           y="844.64166"
           x="856.40106"
           id="tspan1078-7"
           sodipodi:role="line"
           style="font-size:80px">2</tspan></text>
      <text
         id="text1084-9"
         y="844.20142"
         x="1117.8179"
         style="font-size:80px;line-height:1.25;font-family:'FuraCode Nerd Font';-inkscape-font-specification:'FuraCode Nerd Font, Normal';letter-spacing:0px;word-spacing:0px;fill:#ffffff;fill-opacity:1;stroke:none;stroke-opacity:1"
         xml:space="preserve"><tspan
           y="844.20142"
           x="1117.8179"
           id="tspan1082-2"
           sodipodi:role="line"
           style="font-size:80px">3</tspan></text>
      <text
         id="text1088-0"
         y="607.09467"
         x="329.64047"
         style="font-size:74.6667px;line-height:1.25;font-family:'FuraCode Nerd Font';-inkscape-font-specification:'FuraCode Nerd Font, Normal';letter-spacing:0px;word-spacing:0px;fill:#ffffff;fill-opacity:1;stroke:none;stroke-opacity:1"
         xml:space="preserve"><tspan
           y="607.09467"
           x="329.64047"
           id="tspan1086-2"
           sodipodi:role="line"
           style="font-size:80px">4</tspan></text>
      <text
         id="text1092-3"
         y="368.66702"
         x="985.75"
         style="font-size:74.6667px;line-height:1.25;font-family:'FuraCode Nerd Font';-inkscape-font-specification:'FuraCode Nerd Font, Normal';letter-spacing:0px;word-spacing:0px;fill:#ffffff;fill-opacity:1;stroke:none;stroke-opacity:1"
         xml:space="preserve"><tspan
           y="368.66702"
           x="985.75"
           id="tspan1090-7"
           sodipodi:role="line"
           style="font-size:80px">5</tspan></text>
      <text
         id="text1096-5"
         y="369.10703"
         x="204.66006"
         style="font-size:74.6667px;line-height:1.25;font-family:'FuraCode Nerd Font';-inkscape-font-specification:'FuraCode Nerd Font, Normal';letter-spacing:0px;word-spacing:0px;fill:#ffffff;fill-opacity:1;stroke:none;stroke-opacity:1"
         xml:space="preserve"><tspan
           y="369.10703"
           x="204.66006"
           id="tspan1094-9"
           sodipodi:role="line"
           style="font-size:80px">6</tspan></text>
      <text
         id="text1100-2"
         y="131.2"
         x="594.94507"
         style="font-size:74.6667px;line-height:1.25;font-family:'FuraCode Nerd Font';-inkscape-font-specification:'FuraCode Nerd Font, Normal';letter-spacing:0px;word-spacing:0px;fill:#ffffff;fill-opacity:1;stroke:none;stroke-opacity:1"
         xml:space="preserve"><tspan
           y="131.2"
           x="594.94507"
           id="tspan1098-2"
           sodipodi:role="line"
           style="font-size:80px">7</tspan></text>
      <text
         id="text1104-8"
         y="606.65399"
         x="1240.798"
         style="font-size:74.6667px;line-height:1.25;font-family:'FuraCode Nerd Font';-inkscape-font-specification:'FuraCode Nerd Font, Normal';letter-spacing:0px;word-spacing:0px;fill:#ffffff;fill-opacity:1;stroke:none;stroke-opacity:1"
         xml:space="preserve"><tspan
           y="606.65399"
           x="1240.798"
           id="tspan1102-9"
           sodipodi:role="line"
           style="font-size:80px">8</tspan></text>
      <text
         id="text1108-7"
         y="606.21399"
         x="730.46106"
         style="font-size:80px;line-height:1.25;font-family:'FuraCode Nerd Font';-inkscape-font-specification:'FuraCode Nerd Font, Normal';letter-spacing:0px;word-spacing:0px;fill:#ffffff;fill-opacity:1;stroke:none;stroke-opacity:1"
         xml:space="preserve"><tspan
           y="606.21399"
           x="730.46106"
           id="tspan1106-3"
           sodipodi:role="line"
           style="font-size:80px">9</tspan></text>
      <text
         xml:space="preserve"
         style="font-size:74.6667px;line-height:1.25;font-family:'FuraCode Nerd Font';-inkscape-font-specification:'FuraCode Nerd Font, Normal';letter-spacing:0px;word-spacing:0px;fill:#ffffff;fill-opacity:1;stroke:none;stroke-opacity:1"
         x="604.84064"
         y="844.20142"
         id="text1076-1-6"><tspan
           sodipodi:role="line"
           id="tspan1074-8-1"
           x="604.84064"
           y="844.20142"
           style="font-size:80px">0</tspan></text>
    </g>
    <text
       xml:space="preserve"
       style="font-size:74.6667px;line-height:1.25;font-family:'FuraCode Nerd Font';-inkscape-font-specification:'FuraCode Nerd Font, Normal';letter-spacing:0px;word-spacing:0px;fill:#ed8936;fill-opacity:1"
       x="752.2666"
       y="131.08"
       id="text1207"><tspan
         sodipodi:role="line"
         id="tspan1205"
         x="752.2666"
         y="131.08"
         style="font-style:normal;font-variant:normal;font-weight:500;font-stretch:normal;font-size:80px;font-family:'FuraCode Nerd Font';-inkscape-font-specification:'FuraCode Nerd Font Medium'">5</tspan></text>
    <text
       id="text1207-2"
       y="369.147"
       x="1141.4315"
       style="font-size:74.6667px;line-height:1.25;font-family:'FuraCode Nerd Font';-inkscape-font-specification:'FuraCode Nerd Font, Normal';letter-spacing:0px;word-spacing:0px;display:inline;fill:#ed8936;fill-opacity:1"
       xml:space="preserve"><tspan
         y="369.147"
         x="1141.4315"
         id="tspan1205-9"
         sodipodi:role="line"
         style="font-style:normal;font-variant:normal;font-weight:500;font-stretch:normal;font-size:80px;font-family:'FuraCode Nerd Font';-inkscape-font-specification:'FuraCode Nerd Font Medium'">1</tspan></text>
    <text
       xml:space="preserve"
       style="font-size:74.6667px;line-height:1.25;font-family:'FuraCode Nerd Font';-inkscape-font-specification:'FuraCode Nerd Font, Normal';letter-spacing:0px;word-spacing:0px;display:inline;fill:#ed8936;fill-opacity:1"
       x="885.86255"
       y="606.69397"
       id="text1207-2-9"><tspan
         style="font-style:normal;font-variant:normal;font-weight:500;font-stretch:normal;font-size:80px;font-family:'FuraCode Nerd Font';-inkscape-font-specification:'FuraCode Nerd Font Medium'"
         sodipodi:role="line"
         id="tspan1205-9-4"
         x="885.86255"
         y="606.69397">1</tspan></text>
  </g>
  <g
     transform="translate(-22.618688,-55.999996)"
     style="display:none"
     inkscape:label="predecessor"
     id="layer2"
     inkscape:groupmode="layer"
     sodipodi:insensitive="true">
    <g
       style="display:inline"
       transform="translate(3.9999997)"
       id="g969-2">
      <path
         style="fill:none;stroke:#9f7aea;stroke-width:8;stroke-linecap:round;stroke-linejoin:round;stroke-miterlimit:4;stroke-dasharray:none;stroke-opacity:1"
         d="M 367.56897,112 112,349.54697"
         id="path965-7" />
      <path
         style="fill:none;stroke:#9f7aea;stroke-width:8;stroke-linecap:round;stroke-linejoin:round;stroke-miterlimit:4;stroke-dasharray:24, 24;stroke-dashoffset:0;stroke-opacity:1"
         d="M 112,349.54697 236.82001,587.0946"
         id="path967-0" />
    </g>
    <circle
       r="72"
       style="display:inline;fill:#202020;fill-opacity:1;stroke:#ecc94b;stroke-width:8;stroke-linecap:round;stroke-linejoin:round;stroke-miterlimit:4;stroke-dasharray:none;stroke-opacity:1;paint-order:normal"
       id="circle971-9"
       cx="240.82001"
       cy="587.0946" />
    <circle
       r="72"
       cy="349.54697"
       cx="116"
       id="circle973-3"
       style="display:inline;fill:#202020;fill-opacity:1;stroke:none;stroke-width:16;stroke-linecap:round;stroke-linejoin:round;stroke-miterlimit:4;stroke-dasharray:none;stroke-opacity:1;paint-order:markers stroke fill" />
    <circle
       r="72"
       cy="112"
       cx="371.56897"
       id="circle975-6"
       style="display:inline;fill:#202020;fill-opacity:1;stroke:#48bb78;stroke-width:8;stroke-linecap:round;stroke-linejoin:round;stroke-miterlimit:4;stroke-dasharray:none;stroke-opacity:1;paint-order:normal" />
    <circle
       r="24.000097"
       cy="659.0946"
       cx="240.82001"
       id="circle977-0"
       style="display:inline;fill:#ed8936;fill-opacity:1;stroke:none;stroke-width:11.5195;stroke-linecap:round;stroke-linejoin:round;stroke-miterlimit:4;stroke-dasharray:none;stroke-opacity:1;paint-order:markers stroke fill" />
    <circle
       style="display:inline;fill:#ed8936;fill-opacity:1;stroke:none;stroke-width:11.5195;stroke-linecap:round;stroke-linejoin:round;stroke-miterlimit:4;stroke-dasharray:none;stroke-opacity:1;paint-order:markers stroke fill"
       id="circle979-6"
       cx="116"
       cy="421.54697"
       r="24.000097" />
    <circle
       style="display:inline;fill:#ed8936;fill-opacity:1;stroke:none;stroke-width:11.5195;stroke-linecap:round;stroke-linejoin:round;stroke-miterlimit:4;stroke-dasharray:none;stroke-opacity:1;paint-order:markers stroke fill"
       id="circle981-2"
       cx="371.56897"
       cy="184"
       r="24.000097" />
    <path
       sodipodi:nodetypes="cssc"
       id="path983-6"
       d="m 241.14286,705 c 50.80473,0 113.67296,-61.31565 113.67296,-117.85714 0,-92.16008 -142.24439,-142.71123 -142.24439,-242.85714 0,-67.14328 92.59359,-121.42858 160.71429,-121.42858"
       style="display:inline;fill:none;stroke:#4299e1;stroke-width:8;stroke-linecap:round;stroke-linejoin:round;stroke-miterlimit:4;stroke-dasharray:none;stroke-opacity:1" />
  </g>
  <g
     sodipodi:insensitive="true"
     inkscape:groupmode="layer"
     id="g985"
     inkscape:label="successor"
     style="display:none"
     transform="translate(-22.618688,-55.999996)">
    <g
       id="g969"
       transform="matrix(-1,0,0,1,487.56897,0)">
      <path
         id="path965"
         d="M 367.56897,112 112,349.54697"
         style="fill:none;stroke:#9f7aea;stroke-width:8;stroke-linecap:round;stroke-linejoin:round;stroke-miterlimit:4;stroke-dasharray:none;stroke-opacity:1" />
      <path
         id="path967"
         d="M 112,349.54697 236.82001,587.0946"
         style="fill:none;stroke:#9f7aea;stroke-width:8;stroke-linecap:round;stroke-linejoin:round;stroke-miterlimit:4;stroke-dasharray:24, 24;stroke-dashoffset:0;stroke-opacity:1" />
    </g>
    <circle
       cy="587.0946"
       cx="-250.74896"
       id="circle971"
       style="display:inline;fill:#202020;fill-opacity:1;stroke:#ecc94b;stroke-width:8;stroke-linecap:round;stroke-linejoin:round;stroke-miterlimit:4;stroke-dasharray:none;stroke-opacity:1;paint-order:normal"
       r="72"
       transform="scale(-1,1)" />
    <circle
       style="display:inline;fill:#202020;fill-opacity:1;stroke:none;stroke-width:16;stroke-linecap:round;stroke-linejoin:round;stroke-miterlimit:4;stroke-dasharray:none;stroke-opacity:1;paint-order:markers stroke fill"
       id="circle973"
       cx="-375.56897"
       cy="349.54697"
       r="72"
       transform="scale(-1,1)" />
    <circle
       style="display:inline;fill:#202020;fill-opacity:1;stroke:#48bb78;stroke-width:8;stroke-linecap:round;stroke-linejoin:round;stroke-miterlimit:4;stroke-dasharray:none;stroke-opacity:1;paint-order:normal"
       id="circle975"
       cx="-120"
       cy="112"
       r="72"
       transform="scale(-1,1)" />
    <circle
       style="display:inline;fill:#ed8936;fill-opacity:1;stroke:none;stroke-width:11.5195;stroke-linecap:round;stroke-linejoin:round;stroke-miterlimit:4;stroke-dasharray:none;stroke-opacity:1;paint-order:markers stroke fill"
       id="circle977"
       cx="-250.74896"
       cy="659.0946"
       r="24.000097"
       transform="scale(-1,1)" />
    <circle
       r="24.000097"
       cy="421.54697"
       cx="-375.56897"
       id="circle979"
       style="display:inline;fill:#ed8936;fill-opacity:1;stroke:none;stroke-width:11.5195;stroke-linecap:round;stroke-linejoin:round;stroke-miterlimit:4;stroke-dasharray:none;stroke-opacity:1;paint-order:markers stroke fill"
       transform="scale(-1,1)" />
    <circle
       r="24.000097"
       cy="184"
       cx="-120"
       id="circle981"
       style="display:inline;fill:#ed8936;fill-opacity:1;stroke:none;stroke-width:11.5195;stroke-linecap:round;stroke-linejoin:round;stroke-miterlimit:4;stroke-dasharray:none;stroke-opacity:1;paint-order:markers stroke fill"
       transform="scale(-1,1)" />
    <path
       style="fill:none;stroke:#4299e1;stroke-width:8;stroke-linecap:round;stroke-linejoin:round;stroke-miterlimit:4;stroke-dasharray:none;stroke-opacity:1"
       d="m 250.42611,705 c -50.80473,0 -113.67296,-61.31565 -113.67296,-117.85714 0,-92.16008 142.24439,-142.71123 142.24439,-242.85714 0,-67.14328 -92.59359,-121.42858 -160.71429,-121.42858"
       id="path983"
       sodipodi:nodetypes="cssc" />
  </g>
  <g
     style="display:none"
     transform="translate(-53.988588,-86.824997)"
     inkscape:label="insert"
     inkscape:groupmode="layer"
     id="g1476"
     sodipodi:insensitive="true">
    <g
       id="g1614"
       style="stroke:#9f7aea;stroke-opacity:1">
      <path
         style="display:inline;fill:none;stroke:#9f7aea;stroke-width:8;stroke-linecap:round;stroke-linejoin:round;stroke-miterlimit:4;stroke-dasharray:none;stroke-opacity:1"
         d="M 135.36993,617.91943 260.19033,855.4671"
         id="path1400-8"
         sodipodi:nodetypes="cc" />
      <g
         id="g1607"
         style="stroke:#9f7aea;stroke-opacity:1">
        <circle
           cy="855.4671"
           cx="260.19034"
           id="circle1414-7"
           style="display:inline;fill:#202020;fill-opacity:1;stroke:#ed8936;stroke-width:7.552;stroke-linecap:round;stroke-linejoin:round;stroke-miterlimit:4;stroke-dasharray:none;stroke-opacity:1;paint-order:normal"
           r="72" />
        <text
           xml:space="preserve"
           style="font-size:74.6667px;line-height:1.25;font-family:'FuraCode Nerd Font';-inkscape-font-specification:'FuraCode Nerd Font, Normal';letter-spacing:0px;word-spacing:0px;display:inline;fill:#ffffff;fill-opacity:1;stroke:#9f7aea;stroke-opacity:1"
           x="238.27567"
           y="880.77911"
           id="text1448-1"><tspan
             sodipodi:role="line"
             id="tspan1446-7"
             x="238.27567"
             y="880.77911">5</tspan></text>
      </g>
    </g>
    <g
       id="g1410">
      <path
         style="fill:none;stroke:#9f7aea;stroke-width:8;stroke-linecap:round;stroke-linejoin:round;stroke-miterlimit:4;stroke-dasharray:none;stroke-opacity:1"
         d="M 135.36987,617.91944 260.18988,380.37201 385.01028,617.91968"
         id="path1400" />
      <path
         style="fill:none;stroke:#9f7aea;stroke-width:8;stroke-linecap:round;stroke-linejoin:round;stroke-miterlimit:4;stroke-dasharray:none;stroke-opacity:1"
         d="M 260.18988,380.37201 650.39489,142.825 1040.5999,380.37201"
         id="path1402" />
      <path
         style="fill:none;stroke:#9f7aea;stroke-width:8;stroke-linecap:round;stroke-linejoin:round;stroke-miterlimit:4;stroke-dasharray:none;stroke-opacity:1"
         d="m 785.03088,617.91901 255.56902,-237.547 255.568,237.547"
         id="path1404" />
      <path
         style="fill:none;stroke:#9f7aea;stroke-width:8;stroke-linecap:round;stroke-linejoin:round;stroke-miterlimit:4;stroke-dasharray:none;stroke-opacity:1"
         d="M 1171.3477,855.46643 1296.1679,617.91901"
         id="path1406" />
      <path
         style="fill:none;stroke:#9f7aea;stroke-width:8;stroke-linecap:round;stroke-linejoin:round;stroke-miterlimit:4;stroke-dasharray:none;stroke-opacity:1"
         d="M 660.21045,855.46643 785.03088,617.91901 909.85089,855.46668"
         id="path1408" />
    </g>
    <g
       transform="translate(5.3320312e-5)"
       id="g1432">
      <circle
         style="fill:#202020;fill-opacity:1;stroke:#48bb78;stroke-width:7.552;stroke-linecap:round;stroke-linejoin:round;stroke-miterlimit:4;stroke-dasharray:none;stroke-opacity:1;paint-order:normal"
         id="circle1412"
         cx="135.36987"
         cy="617.91943"
         r="72" />
      <circle
         cy="617.91968"
         cx="385.01028"
         id="circle1414"
         style="fill:#202020;fill-opacity:1;stroke:none;stroke-width:7.55246;stroke-linecap:round;stroke-linejoin:round;paint-order:markers stroke fill"
         r="72" />
      <circle
         style="fill:#202020;fill-opacity:1;stroke:#4299e1;stroke-width:9;stroke-linecap:round;stroke-linejoin:round;stroke-miterlimit:4;stroke-dasharray:none;stroke-opacity:1;paint-order:normal"
         id="circle1416"
         cx="260.18988"
         cy="380.37201"
         r="72" />
      <circle
         r="72"
         cy="855.46643"
         cx="660.21045"
         id="circle1418"
         style="fill:#202020;fill-opacity:1;stroke:none;stroke-width:7.55246;stroke-linecap:round;stroke-linejoin:round;paint-order:markers stroke fill" />
      <circle
         r="72"
         style="fill:#202020;fill-opacity:1;stroke:none;stroke-width:7.55246;stroke-linecap:round;stroke-linejoin:round;paint-order:markers stroke fill"
         id="circle1420"
         cx="909.85089"
         cy="855.46667" />
      <circle
         r="72"
         cy="617.91901"
         cx="785.03088"
         id="circle1422"
         style="fill:#202020;fill-opacity:1;stroke:none;stroke-width:7.55246;stroke-linecap:round;stroke-linejoin:round;paint-order:markers stroke fill" />
      <circle
         style="fill:#202020;fill-opacity:1;stroke:none;stroke-width:7.55246;stroke-linecap:round;stroke-linejoin:round;paint-order:markers stroke fill"
         id="circle1424"
         cx="1171.3477"
         cy="855.46643"
         r="72" />
      <circle
         style="fill:#202020;fill-opacity:1;stroke:none;stroke-width:7.55246;stroke-linecap:round;stroke-linejoin:round;paint-order:markers stroke fill"
         id="circle1426"
         cx="1296.1678"
         cy="617.91901"
         r="72" />
      <circle
         r="72"
         cy="380.37201"
         cx="1040.5999"
         id="circle1428"
         style="fill:#202020;fill-opacity:1;stroke:none;stroke-width:7.55246;stroke-linecap:round;stroke-linejoin:round;paint-order:markers stroke fill" />
      <circle
         r="72"
         cy="142.825"
         cx="650.3949"
         id="circle1430"
         style="fill:#202020;fill-opacity:1;stroke:none;stroke-width:8;stroke-linecap:round;stroke-linejoin:round;stroke-miterlimit:4;stroke-dasharray:none;stroke-opacity:1;paint-order:normal" />
    </g>
    <g
       id="g1474"
       style="display:inline"
       transform="translate(31.369877,38.825001)">
      <text
         xml:space="preserve"
         style="font-size:74.6667px;line-height:1.25;font-family:'FuraCode Nerd Font';-inkscape-font-specification:'FuraCode Nerd Font, Normal';letter-spacing:0px;word-spacing:0px;fill:#ffffff;fill-opacity:1;stroke:none;stroke-opacity:1"
         x="81.152046"
         y="604.81714"
         id="text1436"><tspan
           sodipodi:role="line"
           id="tspan1434"
           x="81.152046"
           y="604.81714">1</tspan></text>
      <text
         xml:space="preserve"
         style="font-size:74.6667px;line-height:1.25;font-family:'FuraCode Nerd Font';-inkscape-font-specification:'FuraCode Nerd Font, Normal';letter-spacing:0px;word-spacing:0px;fill:#ffffff;fill-opacity:1;stroke:none;stroke-opacity:1"
         x="857.87305"
         y="842.77502"
         id="text1440"><tspan
           sodipodi:role="line"
           id="tspan1438"
           x="857.87305"
           y="842.77502">2</tspan></text>
      <text
         xml:space="preserve"
         style="font-size:74.6667px;line-height:1.25;font-family:'FuraCode Nerd Font';-inkscape-font-specification:'FuraCode Nerd Font, Normal';letter-spacing:0px;word-spacing:0px;fill:#ffffff;fill-opacity:1;stroke:none;stroke-opacity:1"
         x="1119.2952"
         y="842.36414"
         id="text1444"><tspan
           sodipodi:role="line"
           id="tspan1442"
           x="1119.2952"
           y="842.36414">3</tspan></text>
      <text
         xml:space="preserve"
         style="font-size:74.6667px;line-height:1.25;font-family:'FuraCode Nerd Font';-inkscape-font-specification:'FuraCode Nerd Font, Normal';letter-spacing:0px;word-spacing:0px;fill:#ffffff;fill-opacity:1;stroke:none;stroke-opacity:1"
         x="331.24045"
         y="605.22803"
         id="text1448"><tspan
           sodipodi:role="line"
           id="tspan1446"
           x="331.24045"
           y="605.22803">4</tspan></text>
      <text
         xml:space="preserve"
         style="font-size:74.6667px;line-height:1.25;font-family:'FuraCode Nerd Font';-inkscape-font-specification:'FuraCode Nerd Font, Normal';letter-spacing:0px;word-spacing:0px;fill:#ffffff;fill-opacity:1;stroke:none;stroke-opacity:1"
         x="987.31537"
         y="366.85904"
         id="text1452"><tspan
           sodipodi:role="line"
           id="tspan1450"
           x="987.31537"
           y="366.85904">5</tspan></text>
      <text
         xml:space="preserve"
         style="font-size:74.6667px;line-height:1.25;font-family:'FuraCode Nerd Font';-inkscape-font-specification:'FuraCode Nerd Font, Normal';letter-spacing:0px;word-spacing:0px;fill:#ffffff;fill-opacity:1;stroke:none;stroke-opacity:1"
         x="206.27072"
         y="367.26968"
         id="text1456"><tspan
           sodipodi:role="line"
           id="tspan1454"
           x="206.27072"
           y="367.26968">6</tspan></text>
      <text
         xml:space="preserve"
         style="font-size:74.6667px;line-height:1.25;font-family:'FuraCode Nerd Font';-inkscape-font-specification:'FuraCode Nerd Font, Normal';letter-spacing:0px;word-spacing:0px;fill:#ffffff;fill-opacity:1;stroke:none;stroke-opacity:1"
         x="596.55042"
         y="129.38667"
         id="text1460"><tspan
           sodipodi:role="line"
           id="tspan1458"
           x="596.55042"
           y="129.38667">7</tspan></text>
      <text
         xml:space="preserve"
         style="font-size:74.6667px;line-height:1.25;font-family:'FuraCode Nerd Font';-inkscape-font-specification:'FuraCode Nerd Font, Normal';letter-spacing:0px;word-spacing:0px;fill:#ffffff;fill-opacity:1;stroke:none;stroke-opacity:1"
         x="1242.3981"
         y="604.81671"
         id="text1464"><tspan
           sodipodi:role="line"
           id="tspan1462"
           x="1242.3981"
           y="604.81671">8</tspan></text>
      <text
         xml:space="preserve"
         style="font-size:74.6667px;line-height:1.25;font-family:'FuraCode Nerd Font';-inkscape-font-specification:'FuraCode Nerd Font, Normal';letter-spacing:0px;word-spacing:0px;fill:#ffffff;fill-opacity:1;stroke:none;stroke-opacity:1"
         x="732.00769"
         y="604.40601"
         id="text1468"><tspan
           sodipodi:role="line"
           id="tspan1466"
           x="732.00769"
           y="604.40601">9</tspan></text>
      <text
         id="text1472"
         y="842.36414"
         x="606.44061"
         style="font-size:74.6667px;line-height:1.25;font-family:'FuraCode Nerd Font';-inkscape-font-specification:'FuraCode Nerd Font, Normal';letter-spacing:0px;word-spacing:0px;fill:#ffffff;fill-opacity:1;stroke:none;stroke-opacity:1"
         xml:space="preserve"><tspan
           y="842.36414"
           x="606.44061"
           id="tspan1470"
           sodipodi:role="line">0</tspan></text>
    </g>
  </g>
  <g
     inkscape:groupmode="layer"
     id="layer4"
     inkscape:label="remove"
     transform="translate(5.6053125,-16)">
    <g
       id="g1125"
       transform="translate(81.299404,100)">
      <path
         style="display:inline;fill:none;stroke:#9f7aea;stroke-width:8;stroke-linecap:round;stroke-linejoin:round;stroke-miterlimit:4;stroke-dasharray:24, 24;stroke-dashoffset:0;stroke-opacity:1"
         d="M 87.776001,309.54697 -37.044005,547.0946"
         id="path967-0-4-0" />
      <text
         xml:space="preserve"
         style="font-size:80px;line-height:1.25;font-family:'FuraCode Nerd Font';-inkscape-font-specification:'FuraCode Nerd Font, Normal';letter-spacing:0px;word-spacing:0px"
         x="-95.459404"
         y="574.52429"
         id="text1120"><tspan
           sodipodi:role="line"
           id="tspan1118"
           x="-95.459404"
           y="574.52429"
           style="font-style:normal;font-variant:normal;font-weight:normal;font-stretch:normal;font-family:'Ubuntu Mono';-inkscape-font-specification:'Ubuntu Mono'">...</tspan></text>
    </g>
    <g
       style="display:inline"
       transform="translate(57.075405,60)"
       id="g969-2-5">
      <path
         style="fill:none;stroke:#9f7aea;stroke-width:8;stroke-linecap:round;stroke-linejoin:round;stroke-miterlimit:4;stroke-dasharray:none;stroke-opacity:1"
         d="M 367.56897,112 112,349.54697"
         id="path965-7-0" />
      <path
         style="fill:none;stroke:#9f7aea;stroke-width:8;stroke-linecap:round;stroke-linejoin:round;stroke-miterlimit:4;stroke-dasharray:24, 24;stroke-dashoffset:0;stroke-opacity:1"
         d="M 112,349.54697 236.82001,587.0946"
         id="path967-0-4" />
    </g>
    <circle
       r="72"
       cy="409.54697"
       cx="169.07541"
       id="circle973-3-7"
       style="display:inline;fill:#202020;fill-opacity:1;stroke:none;stroke-width:16;stroke-linecap:round;stroke-linejoin:round;stroke-miterlimit:4;stroke-dasharray:none;stroke-opacity:1;paint-order:markers stroke fill" />
    <g
       id="g1125-0"
       transform="translate(206.11941,337.54763)">
      <path
         style="display:inline;fill:none;stroke:#9f7aea;stroke-width:8;stroke-linecap:round;stroke-linejoin:round;stroke-miterlimit:4;stroke-dasharray:24, 24;stroke-dashoffset:0;stroke-opacity:1"
         d="M 87.776001,309.54697 -37.044005,547.0946"
         id="path967-0-4-0-3" />
      <text
         xml:space="preserve"
         style="font-size:80px;line-height:1.25;font-family:'FuraCode Nerd Font';-inkscape-font-specification:'FuraCode Nerd Font, Normal';letter-spacing:0px;word-spacing:0px"
         x="-95.459404"
         y="574.52429"
         id="text1120-4"><tspan
           sodipodi:role="line"
           id="tspan1118-0"
           x="-95.459404"
           y="574.52429"
           style="font-style:normal;font-variant:normal;font-weight:normal;font-stretch:normal;font-family:'Ubuntu Mono';-inkscape-font-specification:'Ubuntu Mono'">...</tspan></text>
    </g>
    <g
       id="g1340"
       transform="translate(-11.616753,100)">
      <circle
         r="72"
         style="display:inline;fill:#202020;fill-opacity:1;stroke:#ecc94b;stroke-width:8;stroke-linecap:round;stroke-linejoin:round;stroke-miterlimit:4;stroke-dasharray:none;stroke-opacity:1;paint-order:normal"
         id="circle971-9-8"
         cx="305.51218"
         cy="547.0946" />
      <text
         xml:space="preserve"
         style="font-size:80px;line-height:1.25;font-family:'FuraCode Nerd Font';-inkscape-font-specification:'FuraCode Nerd Font, Normal';letter-spacing:0px;word-spacing:0px;fill:#ffffff;fill-opacity:1"
         x="280.07217"
         y="574.6546"
         id="text1153-0"><tspan
           sodipodi:role="line"
           id="tspan1151-3"
           x="280.07217"
           y="574.6546">B</tspan></text>
    </g>
    <circle
       r="24.000097"
       cy="719.0946"
       cx="293.89542"
       id="circle977-0-7"
       style="display:inline;fill:#ed8936;fill-opacity:1;stroke:none;stroke-width:11.5195;stroke-linecap:round;stroke-linejoin:round;stroke-miterlimit:4;stroke-dasharray:none;stroke-opacity:1;paint-order:markers stroke fill" />
    <circle
       style="display:inline;fill:#ed8936;fill-opacity:1;stroke:none;stroke-width:11.5195;stroke-linecap:round;stroke-linejoin:round;stroke-miterlimit:4;stroke-dasharray:none;stroke-opacity:1;paint-order:markers stroke fill"
       id="circle979-6-2"
       cx="169.07541"
       cy="481.54697"
       r="24.000097" />
    <g
       id="g1125-05"
       transform="matrix(-1,0,0,1,512.42039,-137.54697)">
      <path
         style="display:inline;fill:none;stroke:#9f7aea;stroke-width:8;stroke-linecap:round;stroke-linejoin:round;stroke-miterlimit:4;stroke-dasharray:24, 24;stroke-dashoffset:0;stroke-opacity:1"
         d="M 87.776001,309.54697 -37.044005,547.0946"
         id="path967-0-4-0-6" />
      <text
         xml:space="preserve"
         style="font-size:80px;line-height:1.25;font-family:'FuraCode Nerd Font';-inkscape-font-specification:'FuraCode Nerd Font, Normal';letter-spacing:0px;word-spacing:0px"
         x="-95.459404"
         y="574.52429"
         id="text1120-6"><tspan
           sodipodi:role="line"
           id="tspan1118-4"
           x="-95.459404"
           y="574.52429"
           style="font-style:normal;font-variant:normal;font-weight:normal;font-stretch:normal;font-family:'Ubuntu Mono';-inkscape-font-specification:'Ubuntu Mono'">...</tspan></text>
    </g>
    <g
       id="g1335"
       transform="translate(-11.616753,100)">
      <circle
         r="72"
         cy="72"
         cx="436.26114"
         id="circle975-6-1"
         style="display:inline;fill:#202020;fill-opacity:1;stroke:#48bb78;stroke-width:8;stroke-linecap:round;stroke-linejoin:round;stroke-miterlimit:4;stroke-dasharray:none;stroke-opacity:1;paint-order:normal" />
      <text
         xml:space="preserve"
         style="font-size:80px;line-height:1.25;font-family:'FuraCode Nerd Font';-inkscape-font-specification:'FuraCode Nerd Font, Normal';letter-spacing:0px;word-spacing:0px;fill:#ffffff;fill-opacity:1"
         x="412.30115"
         y="99.559998"
         id="text1153"><tspan
           sodipodi:role="line"
           id="tspan1151"
           x="412.30115"
           y="99.559998">A</tspan></text>
    </g>
    <circle
       style="display:inline;fill:#ed8936;fill-opacity:1;stroke:none;stroke-width:11.5195;stroke-linecap:round;stroke-linejoin:round;stroke-miterlimit:4;stroke-dasharray:none;stroke-opacity:1;paint-order:markers stroke fill"
       id="circle981-2-7"
       cx="424.64438"
       cy="244"
       r="24.000097" />
    <path
       sodipodi:nodetypes="cssc"
       id="path983-6-2"
       d="m 294.21827,765 c 50.80473,0 113.67296,-61.31565 113.67296,-117.85714 0,-92.16008 -142.24439,-142.71123 -142.24439,-242.85714 0,-67.14328 92.59359,-121.42858 160.71429,-121.42858"
       style="display:inline;fill:none;stroke:#4299e1;stroke-width:8;stroke-linecap:round;stroke-linejoin:round;stroke-miterlimit:4;stroke-dasharray:none;stroke-opacity:1" />
    <g
       style="display:inline"
       transform="translate(783.55741,60)"
       id="g969-2-5-2">
      <path
         style="fill:none;stroke:#9f7aea;stroke-width:8;stroke-linecap:round;stroke-linejoin:round;stroke-miterlimit:4;stroke-dasharray:none;stroke-opacity:1"
         d="M 367.56897,112 112,349.54697"
         id="path965-7-0-8" />
      <path
         style="fill:none;stroke:#9f7aea;stroke-width:8;stroke-linecap:round;stroke-linejoin:round;stroke-miterlimit:4;stroke-dasharray:24, 24;stroke-dashoffset:0;stroke-opacity:1"
         d="M 112,349.54697 236.82001,587.0946"
         id="path967-0-4-9" />
    </g>
    <g
       id="g1125-00"
       transform="matrix(-1,0,0,1,1238.9023,-137.54696)">
      <path
         style="display:inline;fill:none;stroke:#9f7aea;stroke-width:8;stroke-linecap:round;stroke-linejoin:round;stroke-miterlimit:4;stroke-dasharray:24, 24;stroke-dashoffset:0;stroke-opacity:1"
         d="M 87.776001,309.54697 -37.044005,547.0946"
         id="path967-0-4-0-4" />
      <text
         xml:space="preserve"
         style="font-size:80px;line-height:1.25;font-family:'FuraCode Nerd Font';-inkscape-font-specification:'FuraCode Nerd Font, Normal';letter-spacing:0px;word-spacing:0px"
         x="-95.459404"
         y="574.52429"
         id="text1120-62"><tspan
           sodipodi:role="line"
           id="tspan1118-6"
           x="-95.459404"
           y="574.52429"
           style="font-style:normal;font-variant:normal;font-weight:normal;font-stretch:normal;font-family:'Ubuntu Mono';-inkscape-font-specification:'Ubuntu Mono'">...</tspan></text>
    </g>
    <g
       id="g1330"
       transform="translate(-131.61675,100)">
      <circle
         r="72"
         cy="72"
         cx="1282.743"
         id="circle975-6-1-8"
         style="display:inline;fill:#202020;fill-opacity:1;stroke:#ecc94b;stroke-width:8;stroke-linecap:round;stroke-linejoin:round;stroke-miterlimit:4;stroke-dasharray:none;stroke-opacity:1;paint-order:normal" />
      <text
         xml:space="preserve"
         style="font-size:80px;line-height:1.25;font-family:'FuraCode Nerd Font';-inkscape-font-specification:'FuraCode Nerd Font, Normal';letter-spacing:0px;word-spacing:0px;fill:#ffffff;fill-opacity:1"
         x="1258.7831"
         y="99.559998"
         id="text1153-5"><tspan
           sodipodi:role="line"
           id="tspan1151-1"
           x="1258.7831"
           y="99.559998">B</tspan></text>
    </g>
    <g
       id="g1125-3"
       transform="translate(807.78141,100)">
      <path
         style="display:inline;fill:none;stroke:#9f7aea;stroke-width:8;stroke-linecap:round;stroke-linejoin:round;stroke-miterlimit:4;stroke-dasharray:24, 24;stroke-dashoffset:0;stroke-opacity:1"
         d="M 87.776001,309.54697 -37.044005,547.0946"
         id="path967-0-4-0-9" />
      <text
         xml:space="preserve"
         style="font-size:80px;line-height:1.25;font-family:'FuraCode Nerd Font';-inkscape-font-specification:'FuraCode Nerd Font, Normal';letter-spacing:0px;word-spacing:0px"
         x="-95.459404"
         y="574.52429"
         id="text1120-1"><tspan
           sodipodi:role="line"
           id="tspan1118-9"
           x="-95.459404"
           y="574.52429"
           style="font-style:normal;font-variant:normal;font-weight:normal;font-stretch:normal;font-family:'Ubuntu Mono';-inkscape-font-specification:'Ubuntu Mono'">...</tspan></text>
    </g>
    <circle
       r="72"
       cy="409.54697"
       cx="895.55731"
       id="circle973-3-7-6"
       style="display:inline;fill:#202020;fill-opacity:1;stroke:none;stroke-width:16;stroke-linecap:round;stroke-linejoin:round;stroke-miterlimit:4;stroke-dasharray:none;stroke-opacity:1;paint-order:markers stroke fill" />
    <g
       id="g1125-6"
       transform="translate(932.6013,337.54763)">
      <path
         style="display:inline;fill:none;stroke:#9f7aea;stroke-width:8;stroke-linecap:round;stroke-linejoin:round;stroke-miterlimit:4;stroke-dasharray:24, 24;stroke-dashoffset:0;stroke-opacity:1"
         d="M 87.776001,309.54697 -37.044005,547.0946"
         id="path967-0-4-0-93" />
      <text
         xml:space="preserve"
         style="font-size:80px;line-height:1.25;font-family:'FuraCode Nerd Font';-inkscape-font-specification:'FuraCode Nerd Font, Normal';letter-spacing:0px;word-spacing:0px"
         x="-95.459404"
         y="574.52429"
         id="text1120-3"><tspan
           sodipodi:role="line"
           id="tspan1118-8"
           x="-95.459404"
           y="574.52429"
           style="font-style:normal;font-variant:normal;font-weight:normal;font-stretch:normal;font-family:'Ubuntu Mono';-inkscape-font-specification:'Ubuntu Mono'">...</tspan></text>
    </g>
    <g
       id="g1324"
       transform="translate(-131.61675,100)">
      <circle
         r="72"
         style="display:inline;fill:#202020;fill-opacity:1;stroke:#48bb78;stroke-width:8;stroke-linecap:round;stroke-linejoin:round;stroke-miterlimit:4;stroke-dasharray:none;stroke-opacity:1;paint-order:normal"
         id="circle971-9-8-3"
         cx="1151.9941"
         cy="547.0946" />
      <text
         xml:space="preserve"
         style="font-size:80px;line-height:1.25;font-family:'FuraCode Nerd Font';-inkscape-font-specification:'FuraCode Nerd Font, Normal';letter-spacing:0px;word-spacing:0px;fill:#ffffff;fill-opacity:1"
         x="1126.5541"
         y="574.6546"
         id="text1153-0-1"><tspan
           sodipodi:role="line"
           id="tspan1151-3-0"
           x="1126.5541"
           y="574.6546">A</tspan></text>
    </g>
    <circle
       r="24.000097"
       cy="719.0946"
       cx="1020.3774"
       id="circle977-0-7-0"
       style="display:inline;fill:#ed8936;fill-opacity:1;stroke:none;stroke-width:11.5195;stroke-linecap:round;stroke-linejoin:round;stroke-miterlimit:4;stroke-dasharray:none;stroke-opacity:1;paint-order:markers stroke fill" />
    <circle
       style="display:inline;fill:#ed8936;fill-opacity:1;stroke:none;stroke-width:11.5195;stroke-linecap:round;stroke-linejoin:round;stroke-miterlimit:4;stroke-dasharray:none;stroke-opacity:1;paint-order:markers stroke fill"
       id="circle979-6-2-2"
       cx="895.55731"
       cy="481.54697"
       r="24.000097" />
    <circle
       style="display:inline;fill:#ed8936;fill-opacity:1;stroke:none;stroke-width:11.5195;stroke-linecap:round;stroke-linejoin:round;stroke-miterlimit:4;stroke-dasharray:none;stroke-opacity:1;paint-order:markers stroke fill"
       id="circle981-2-7-1"
       cx="1151.1263"
       cy="244"
       r="24.000097" />
    <path
       sodipodi:nodetypes="cssc"
       id="path983-6-2-0"
       d="m 1020.7002,765.00001 c 50.8048,0 113.673,-61.31565 113.673,-117.85714 0,-92.16008 -142.2444,-142.71123 -142.2444,-242.85714 0,-67.14328 92.5936,-121.42858 160.7143,-121.42858"
       style="display:inline;fill:none;stroke:#4299e1;stroke-width:8;stroke-linecap:round;stroke-linejoin:round;stroke-miterlimit:4;stroke-dasharray:none;stroke-opacity:1" />
    <path
       style="display:inline;fill:none;stroke:#9f7aea;stroke-width:8;stroke-linecap:round;stroke-linejoin:round;stroke-miterlimit:4;stroke-dasharray:24, 24;stroke-dashoffset:0;stroke-opacity:1"
       d="m 1867.4202,155.48823 0.015,154.05889"
       id="path967-0-4-0-7-5"
       sodipodi:nodetypes="cc" />
    <g
       id="g1125-3-7"
       transform="translate(1654.8394,237.54772)">
      <path
         style="display:inline;fill:none;stroke:#9f7aea;stroke-width:8;stroke-linecap:round;stroke-linejoin:round;stroke-miterlimit:4;stroke-dasharray:24, 24;stroke-dashoffset:0;stroke-opacity:1"
         d="M 87.776001,309.54697 -37.044005,547.0946"
         id="path967-0-4-0-9-2" />
      <text
         xml:space="preserve"
         style="font-size:80px;line-height:1.25;font-family:'FuraCode Nerd Font';-inkscape-font-specification:'FuraCode Nerd Font, Normal';letter-spacing:0px;word-spacing:0px"
         x="-95.459404"
         y="574.52429"
         id="text1120-1-8"><tspan
           sodipodi:role="line"
           id="tspan1118-9-2"
           x="-95.459404"
           y="574.52429"
           style="font-style:normal;font-variant:normal;font-weight:normal;font-stretch:normal;font-family:'Ubuntu Mono';-inkscape-font-specification:'Ubuntu Mono'">...</tspan></text>
    </g>
    <path
       style="display:inline;fill:none;stroke:#9f7aea;stroke-width:8;stroke-linecap:round;stroke-linejoin:round;stroke-miterlimit:4;stroke-dasharray:none;stroke-dashoffset:0;stroke-opacity:1"
       d="m 1867.4354,309.54712 -124.8199,237.5476"
       id="path967-0-4-0-7-5-7" />
    <g
       id="g1324-7"
       transform="translate(715.4413,-237.54749)">
      <circle
         r="72"
         style="display:inline;fill:#202020;fill-opacity:1;stroke:#48bb78;stroke-width:8;stroke-linecap:round;stroke-linejoin:round;stroke-miterlimit:4;stroke-dasharray:none;stroke-opacity:1;paint-order:normal"
         id="circle971-9-8-3-2"
         cx="1151.9941"
         cy="547.0946" />
      <text
         xml:space="preserve"
         style="font-size:80px;line-height:1.25;font-family:'FuraCode Nerd Font';-inkscape-font-specification:'FuraCode Nerd Font, Normal';letter-spacing:0px;word-spacing:0px;fill:#ffffff;fill-opacity:1"
         x="1126.5541"
         y="574.6546"
         id="text1153-0-1-4"><tspan
           sodipodi:role="line"
           id="tspan1151-3-0-0"
           x="1126.5541"
           y="574.6546">A</tspan></text>
    </g>
    <g
       id="g1125-3-7-9"
       transform="matrix(-1,0,0,1,1830.3915,237.54772)">
      <path
         style="display:inline;fill:none;stroke:#9f7aea;stroke-width:8;stroke-linecap:round;stroke-linejoin:round;stroke-miterlimit:4;stroke-dasharray:24, 24;stroke-dashoffset:0;stroke-opacity:1"
         d="M 87.776001,309.54697 -37.044005,547.0946"
         id="path967-0-4-0-9-2-9" />
      <text
         xml:space="preserve"
         style="font-size:80px;line-height:1.25;font-family:'FuraCode Nerd Font';-inkscape-font-specification:'FuraCode Nerd Font, Normal';letter-spacing:0px;word-spacing:0px"
         x="-95.459404"
         y="574.52429"
         id="text1120-1-8-6"><tspan
           sodipodi:role="line"
           id="tspan1118-9-2-0"
           x="-95.459404"
           y="574.52429"
           style="font-style:normal;font-variant:normal;font-weight:normal;font-stretch:normal;font-family:'Ubuntu Mono';-inkscape-font-specification:'Ubuntu Mono'">...</tspan></text>
    </g>
    <g
       id="g1340-4-6-5"
       transform="translate(1437.1033,1.2e-4)">
      <circle
         r="72"
         style="display:inline;fill:#202020;fill-opacity:1;stroke:#ecc94b;stroke-width:8;stroke-linecap:round;stroke-linejoin:round;stroke-miterlimit:4;stroke-dasharray:none;stroke-opacity:1;paint-order:normal"
         id="circle971-9-8-6-2-6"
         cx="305.51218"
         cy="547.0946" />
      <text
         xml:space="preserve"
         style="font-size:80px;line-height:1.25;font-family:'FuraCode Nerd Font';-inkscape-font-specification:'FuraCode Nerd Font, Normal';letter-spacing:0px;word-spacing:0px;fill:#ffffff;fill-opacity:1"
         x="280.07217"
         y="574.6546"
         id="text1153-0-2-8-9"><tspan
           sodipodi:role="line"
           id="tspan1151-3-5-4-8"
           x="280.07217"
           y="574.6546">C</tspan></text>
    </g>
    <g
       id="g1125-3-7-4"
       transform="translate(2205.31,1.2e-4)">
      <path
         style="display:inline;fill:none;stroke:#9f7aea;stroke-width:8;stroke-linecap:round;stroke-linejoin:round;stroke-miterlimit:4;stroke-dasharray:24, 24;stroke-dashoffset:0;stroke-opacity:1"
         d="M 87.776001,309.54697 -37.044005,547.0946"
         id="path967-0-4-0-9-2-8" />
      <text
         xml:space="preserve"
         style="font-size:80px;line-height:1.25;font-family:'FuraCode Nerd Font';-inkscape-font-specification:'FuraCode Nerd Font, Normal';letter-spacing:0px;word-spacing:0px"
         x="-95.459404"
         y="574.52429"
         id="text1120-1-8-0"><tspan
           sodipodi:role="line"
           id="tspan1118-9-2-4"
           x="-95.459404"
           y="574.52429"
           style="font-style:normal;font-variant:normal;font-weight:normal;font-stretch:normal;font-family:'Ubuntu Mono';-inkscape-font-specification:'Ubuntu Mono'">...</tspan></text>
    </g>
    <g
       id="g1125-3-7-9-4"
       transform="matrix(-1,0,0,1,2380.8621,1.2e-4)">
      <path
         style="display:inline;fill:none;stroke:#9f7aea;stroke-width:8;stroke-linecap:round;stroke-linejoin:round;stroke-miterlimit:4;stroke-dasharray:24, 24;stroke-dashoffset:0;stroke-opacity:1"
         d="M 87.776001,309.54697 -37.044005,547.0946"
         id="path967-0-4-0-9-2-9-2" />
      <text
         xml:space="preserve"
         style="font-size:80px;line-height:1.25;font-family:'FuraCode Nerd Font';-inkscape-font-specification:'FuraCode Nerd Font, Normal';letter-spacing:0px;word-spacing:0px"
         x="-95.459404"
         y="574.52429"
         id="text1120-1-8-6-2"><tspan
           sodipodi:role="line"
           id="tspan1118-9-2-0-2"
           x="-95.459404"
           y="574.52429"
           style="font-style:normal;font-variant:normal;font-weight:normal;font-stretch:normal;font-family:'Ubuntu Mono';-inkscape-font-specification:'Ubuntu Mono'">...</tspan></text>
    </g>
    <path
       style="display:inline;fill:none;stroke:#9f7aea;stroke-width:8;stroke-linecap:round;stroke-linejoin:round;stroke-miterlimit:4;stroke-dasharray:24, 24;stroke-dashoffset:0;stroke-opacity:1"
       d="m 2293.0786,160.51771 0.015,154.05889"
       id="path967-0-4-0-7-5-9"
       sodipodi:nodetypes="cc" />
    <g
       id="g1340-4-6-5-0"
       transform="translate(1987.5739,-237.54745)">
      <circle
         r="72"
         style="display:inline;fill:#202020;fill-opacity:1;stroke:#ecc94b;stroke-width:8;stroke-linecap:round;stroke-linejoin:round;stroke-miterlimit:4;stroke-dasharray:none;stroke-opacity:1;paint-order:normal"
         id="circle971-9-8-6-2-6-5"
         cx="305.51218"
         cy="547.0946" />
      <text
         xml:space="preserve"
         style="font-size:80px;line-height:1.25;font-family:'FuraCode Nerd Font';-inkscape-font-specification:'FuraCode Nerd Font, Normal';letter-spacing:0px;word-spacing:0px;fill:#ffffff;fill-opacity:1"
         x="280.07217"
         y="574.6546"
         id="text1153-0-2-8-9-5"><tspan
           sodipodi:role="line"
           id="tspan1151-3-5-4-8-2"
           x="280.07217"
           y="574.6546">C</tspan></text>
    </g>
    <text
       xml:space="preserve"
       style="font-size:60px;line-height:1.25;font-family:'FuraCode Nerd Font';-inkscape-font-specification:'FuraCode Nerd Font, Normal';letter-spacing:0px;word-spacing:0px"
       x="-2.4000001"
       y="62.380001"
       id="text1150"><tspan
         sodipodi:role="line"
         id="tspan1148"
         x="-2.4000001"
         y="62.380001"
         style="font-size:60px">Two children: </tspan></text>
    <g
       aria-label="One child: "
       id="text1150-7"
       style="font-size:60px;line-height:1.25;font-family:'FuraCode Nerd Font';-inkscape-font-specification:'FuraCode Nerd Font, Normal';letter-spacing:0px;word-spacing:0px"
       transform="translate(0.51356313,4.54)">
      <path
         d="m 1603.3918,37.2 c 0,-12.72 -5.16,-21.36 -15.18,-21.36 -10.02,0 -15.18,8.94 -15.18,21.42 0,12.78 5.16,21.24 15.18,21.24 10.02,0 15.18,-8.76 15.18,-21.3 z m -5.4,0 c 0,11.04 -2.82,16.92 -9.78,16.92 -6.78,0 -9.78,-5.82 -9.78,-16.86 0,-10.98 2.82,-17.04 9.78,-17.04 6.96,0 9.78,6 9.78,16.98 z"
         style="font-size:60px"
         id="path1168" />
      <path
         d="m 1612.2117,57.84 h 5.04 V 34.86 c 1.68,-2.52 4.86,-5.28 8.58,-5.28 4.74,0 5.4,2.58 5.4,9.06 v 19.2 h 5.04 V 34.92 c 0,-5.88 -2.7,-9.36 -8.88,-9.36 -3.72,0 -7.92,1.86 -10.44,5.1 l -0.42,-4.44 h -4.32 z"
         style="font-size:60px"
         id="path1171" />
      <path
         d="m 1652.2316,43.8 h 21.24 c 0.06,-0.66 0.12,-1.62 0.12,-2.7 0,-9.6 -4.92,-15.54 -12.9,-15.54 -8.4,0 -13.74,6.96 -13.74,16.5 0,9.84 5.22,16.44 14.46,16.44 3.9,0 7.86,-1.38 10.8,-3.66 l -2.34,-3.36 c -2.82,1.86 -5.22,2.82 -8.46,2.82 -4.86,0 -8.94,-3.18 -9.18,-10.5 z m 8.52,-14.1 c 4.8,0 7.8,3.48 7.92,10.26 h -16.44 c 0.42,-6.96 3.84,-10.26 8.52,-10.26 z"
         style="font-size:60px"
         id="path1173" />
      <path
         d="m 1734.5514,54.18 c -5.46,0 -9.42,-3.54 -9.42,-12 0,-8.34 3.9,-12.36 9.36,-12.36 2.82,0 5.46,0.96 8.16,2.76 l 2.46,-3.3 c -2.94,-2.46 -6.48,-3.72 -10.56,-3.72 -9.42,0 -14.88,7.14 -14.88,16.62 0,9.9 5.4,16.32 14.88,16.32 3.66,0 7.92,-1.44 10.62,-3.78 l -2.4,-3.3 c -2.4,1.62 -5.04,2.76 -8.22,2.76 z"
         style="font-size:60px"
         id="path1175" />
      <path
         d="m 1761.2513,13.02 -5.04,0.54 v 44.28 h 5.04 V 34.8 c 1.68,-2.46 4.92,-5.22 8.46,-5.22 3.78,0 5.52,1.62 5.52,5.4 v 22.86 h 5.04 V 34.92 c 0,-5.88 -2.7,-9.36 -8.88,-9.36 -3.78,0 -7.62,1.74 -10.14,5.04 z"
         style="font-size:60px"
         id="path1177" />
      <path
         d="m 1804.2112,11.46 c -2.16,0 -3.6,1.5 -3.6,3.54 0,2.04 1.44,3.54 3.6,3.54 2.22,0 3.72,-1.5 3.72,-3.54 0,-2.04 -1.5,-3.54 -3.72,-3.54 z m 4.02,14.76 h -14.46 v 4.02 h 9.42 v 23.58 h -9.72 v 4.02 h 23.64 v -4.02 h -8.88 z"
         style="font-size:60px"
         id="path1179" />
      <path
         d="m 1840.5712,13.5 h -14.76 v 4.02 h 9.72 V 49.8 c 0,5.46 3.78,8.7 9.36,8.7 3.24,0 5.82,-0.72 7.5,-1.62 l -1.32,-3.66 c -1.74,0.66 -3.42,1.08 -5.28,1.08 -3.06,0 -5.22,-1.14 -5.22,-4.26 z"
         style="font-size:60px"
         id="path1181" />
      <path
         d="m 1883.1711,12.9 v 16.44 c -2.16,-2.46 -4.86,-3.78 -8.52,-3.78 -7.74,0 -12.36,7.02 -12.36,16.5 0,9.84 3.78,16.44 12.06,16.44 3.42,0 6.6,-1.5 8.94,-4.8 l 0.48,4.14 h 4.44 V 13.5 Z m -7.2,16.74 c 2.94,0 5.46,1.5 7.2,4.08 v 15.72 c -1.74,2.64 -4.2,5.04 -7.8,5.04 -4.98,0 -7.62,-4.2 -7.62,-12.42 0,-8.34 3,-12.42 8.22,-12.42 z"
         style="font-size:60px"
         id="path1183" />
      <path
         d="m 1907.351,31.98 c 0,2.7 2.04,4.92 4.8,4.92 2.82,0 4.86,-2.22 4.86,-4.92 0,-2.64 -2.04,-4.8 -4.86,-4.8 -2.76,0 -4.8,2.16 -4.8,4.8 z m 0,21.66 c 0,2.76 2.04,4.86 4.8,4.86 2.82,0 4.86,-2.1 4.86,-4.86 0,-2.64 -2.04,-4.86 -4.86,-4.86 -2.76,0 -4.8,2.22 -4.8,4.86 z"
         style="font-size:60px"
         id="path1185" />
    </g>
    <path
       style="fill:none;stroke:#a0a0a0;stroke-width:4;stroke-linecap:round;stroke-linejoin:round;stroke-miterlimit:4;stroke-dasharray:8, 8;stroke-dashoffset:0;stroke-opacity:1"
       d="M 1448.0511,53.436559 V 928.55787"
       id="path1170"
       sodipodi:nodetypes="cc" />
    <path
       style="fill:none;stroke:#f56565;stroke-width:8;stroke-linecap:round;stroke-linejoin:round;stroke-miterlimit:4;stroke-dasharray:24, 24;stroke-dashoffset:0;stroke-opacity:1"
       d="m 1017.8277,539.46207 c -52.37709,0.79681 -110.6984,66.29493 -110.6984,118.67805 0,126.90571 -103.17914,140.39801 -103.17914,254.95583 0,42.31536 48.61388,54.67079 93.66935,54.67079 69.09267,0 118.53449,-53.01683 118.53449,-94.96665 0,-97.11611 118.2192,-106.53404 118.2192,-225.65722 0,-65.74909 -63.6597,-108.48535 -116.5455,-107.6808 z"
       id="path1174"
       sodipodi:nodetypes="sssssss" />
    <path
       style="fill:none;stroke:#f56565;stroke-width:8;stroke-linecap:round;stroke-linejoin:round;stroke-miterlimit:4;stroke-dasharray:24, 24;stroke-dashoffset:0;stroke-opacity:1"
       d="m 1859.7512,214.56182 c -52.377,0.79681 -110.6984,66.29493 -110.6984,118.67805 0,142.1432 -112.4648,68.25515 -112.4648,216.3844 0,42.31536 27.8996,103.95651 105.098,103.95651 69.0926,0 106.29,-62.72097 106.29,-104.67079 0,-129.94607 128.3208,-120.67617 128.3208,-226.66737 0,-65.74909 -63.6597,-108.48535 -116.5456,-107.6808 z"
       id="path1174-2"
       sodipodi:nodetypes="sssssss" />
    <g
       id="g1234">
      <path
         style="fill:none;stroke:#000000;stroke-width:8;stroke-linecap:round;stroke-linejoin:round;stroke-miterlimit:4;stroke-dasharray:none;stroke-opacity:1"
         d="m 617.11168,530.63234 h 82.85714"
         id="path1191"
         sodipodi:nodetypes="cc" />
      <g
         id="g1169"
         transform="translate(129.96882,7.4894866)">
        <path
           style="fill:none;stroke:#000000;stroke-width:8;stroke-linecap:round;stroke-linejoin:round;stroke-miterlimit:4;stroke-dasharray:none;stroke-opacity:1"
           d="M 570,523.14285 549.01791,501.07627"
           id="path1193" />
        <path
           style="fill:none;stroke:#000000;stroke-width:8;stroke-linecap:round;stroke-linejoin:round;stroke-miterlimit:4;stroke-dasharray:none;stroke-opacity:1"
           d="m 570,523.14285 -20.98209,22.06658"
           id="path1193-6" />
      </g>
    </g>
    <g
       id="g1213-1"
       transform="translate(1533.655,-69.94985)">
      <path
         style="fill:none;stroke:#000000;stroke-width:8;stroke-linecap:round;stroke-linejoin:round;stroke-miterlimit:4;stroke-dasharray:none;stroke-opacity:1"
         d="M 487.14286,523.14285 H 570"
         id="path1191-0"
         sodipodi:nodetypes="cc" />
      <path
         style="fill:none;stroke:#000000;stroke-width:8;stroke-linecap:round;stroke-linejoin:round;stroke-miterlimit:4;stroke-dasharray:none;stroke-opacity:1"
         d="M 570,523.14285 549.01791,501.07627"
         id="path1193-61" />
      <path
         style="fill:none;stroke:#000000;stroke-width:8;stroke-linecap:round;stroke-linejoin:round;stroke-miterlimit:4;stroke-dasharray:none;stroke-opacity:1"
         d="m 570,523.14285 -20.98209,22.06658"
         id="path1193-6-5" />
    </g>
    <path
       style="fill:none;stroke:#f56565;stroke-width:8;stroke-linecap:round;stroke-linejoin:round;stroke-miterlimit:4;stroke-dasharray:none;stroke-opacity:1"
       d="m 1117.6978,715.80178 c 0,0 215.1958,-27.56019 330.3533,-227.01885 117.6563,-203.78667 331.6874,-228.48531 331.6874,-228.48531"
       id="path1163"
       sodipodi:nodetypes="csc" />
    <g
       id="g1169-1"
       transform="rotate(-57.068361,1000.8713,-258.54351)"
       style="stroke:#f56565;stroke-opacity:1">
      <path
         style="fill:none;stroke:#f56565;stroke-width:8;stroke-linecap:round;stroke-linejoin:round;stroke-miterlimit:4;stroke-dasharray:none;stroke-opacity:1"
         d="M 570,523.14285 546.62183,504.58411"
         id="path1193-0"
         sodipodi:nodetypes="cc" />
      <path
         style="fill:none;stroke:#f56565;stroke-width:8;stroke-linecap:round;stroke-linejoin:round;stroke-miterlimit:4;stroke-dasharray:none;stroke-opacity:1"
         d="m 570,523.14285 -26.22271,15.13694"
         id="path1193-6-6"
         sodipodi:nodetypes="cc" />
    </g>
  </g>
</svg>
